solid 
   facet normal -7.071068e-001 -7.071068e-001 0.000000e+000
      outer loop
         vertex -1.850000e+001 -1.822231e+001 1.000000e+000
         vertex -1.850000e+001 -1.822231e+001 0.000000e+000
         vertex -1.322231e+001 -2.350000e+001 1.000000e+000
      endloop
   endfacet
   facet normal -7.071068e-001 -7.071068e-001 0.000000e+000
      outer loop
         vertex -1.322231e+001 -2.350000e+001 1.000000e+000
         vertex -1.850000e+001 -1.822231e+001 0.000000e+000
         vertex -1.322231e+001 -2.350000e+001 0.000000e+000
      endloop
   endfacet
   facet normal -1.000000e+000 0.000000e+000 0.000000e+000
      outer loop
         vertex -1.850000e+001 1.822231e+001 1.000000e+000
         vertex -1.850000e+001 1.822231e+001 0.000000e+000
         vertex -1.850000e+001 -1.822231e+001 1.000000e+000
      endloop
   endfacet
   facet normal -1.000000e+000 0.000000e+000 0.000000e+000
      outer loop
         vertex -1.850000e+001 1.822231e+001 0.000000e+000
         vertex -1.850000e+001 -1.822231e+001 0.000000e+000
         vertex -1.850000e+001 -1.822231e+001 1.000000e+000
      endloop
   endfacet
   facet normal -7.071068e-001 7.071068e-001 0.000000e+000
      outer loop
         vertex -1.322231e+001 2.350000e+001 1.000000e+000
         vertex -1.322231e+001 2.350000e+001 0.000000e+000
         vertex -1.850000e+001 1.822231e+001 1.000000e+000
      endloop
   endfacet
   facet normal -7.071068e-001 7.071068e-001 0.000000e+000
      outer loop
         vertex -1.850000e+001 1.822231e+001 1.000000e+000
         vertex -1.322231e+001 2.350000e+001 0.000000e+000
         vertex -1.850000e+001 1.822231e+001 0.000000e+000
      endloop
   endfacet
   facet normal 7.071068e-001 7.071068e-001 -0.000000e+000
      outer loop
         vertex 1.850000e+001 1.822231e+001 1.000000e+000
         vertex 1.850000e+001 1.822231e+001 0.000000e+000
         vertex 1.322231e+001 2.350000e+001 1.000000e+000
      endloop
   endfacet
   facet normal 7.071068e-001 7.071068e-001 -0.000000e+000
      outer loop
         vertex 1.850000e+001 1.822231e+001 0.000000e+000
         vertex 1.322231e+001 2.350000e+001 0.000000e+000
         vertex 1.322231e+001 2.350000e+001 1.000000e+000
      endloop
   endfacet
   facet normal 0.000000e+000 0.000000e+000 -1.000000e+000
      outer loop
         vertex 1.850000e+001 1.822231e+001 0.000000e+000
         vertex 1.850000e+001 -1.822231e+001 0.000000e+000
         vertex 1.322231e+001 2.350000e+001 0.000000e+000
      endloop
   endfacet
   facet normal 0.000000e+000 0.000000e+000 -1.000000e+000
      outer loop
         vertex 1.850000e+001 -1.822231e+001 0.000000e+000
         vertex 1.322231e+001 -2.350000e+001 0.000000e+000
         vertex 1.322231e+001 2.350000e+001 0.000000e+000
      endloop
   endfacet
   facet normal 0.000000e+000 0.000000e+000 -1.000000e+000
      outer loop
         vertex 1.322231e+001 2.350000e+001 0.000000e+000
         vertex 1.322231e+001 -2.350000e+001 0.000000e+000
         vertex -1.322231e+001 2.350000e+001 0.000000e+000
      endloop
   endfacet
   facet normal 0.000000e+000 0.000000e+000 -1.000000e+000
      outer loop
         vertex 1.322231e+001 -2.350000e+001 0.000000e+000
         vertex -1.322231e+001 -2.350000e+001 0.000000e+000
         vertex -1.322231e+001 2.350000e+001 0.000000e+000
      endloop
   endfacet
   facet normal 0.000000e+000 0.000000e+000 -1.000000e+000
      outer loop
         vertex -1.322231e+001 2.350000e+001 0.000000e+000
         vertex -1.322231e+001 -2.350000e+001 0.000000e+000
         vertex -1.850000e+001 1.822231e+001 0.000000e+000
      endloop
   endfacet
   facet normal 0.000000e+000 0.000000e+000 -1.000000e+000
      outer loop
         vertex -1.322231e+001 -2.350000e+001 0.000000e+000
         vertex -1.850000e+001 -1.822231e+001 0.000000e+000
         vertex -1.850000e+001 1.822231e+001 0.000000e+000
      endloop
   endfacet
   facet normal 7.071068e-001 -7.071068e-001 0.000000e+000
      outer loop
         vertex 1.322231e+001 -2.350000e+001 1.000000e+000
         vertex 1.322231e+001 -2.350000e+001 0.000000e+000
         vertex 1.850000e+001 -1.822231e+001 1.000000e+000
      endloop
   endfacet
   facet normal 7.071068e-001 -7.071068e-001 0.000000e+000
      outer loop
         vertex 1.850000e+001 -1.822231e+001 1.000000e+000
         vertex 1.322231e+001 -2.350000e+001 0.000000e+000
         vertex 1.850000e+001 -1.822231e+001 0.000000e+000
      endloop
   endfacet
   facet normal 1.000000e+000 0.000000e+000 0.000000e+000
      outer loop
         vertex 1.850000e+001 -1.822231e+001 1.000000e+000
         vertex 1.850000e+001 -1.822231e+001 0.000000e+000
         vertex 1.850000e+001 1.822231e+001 1.000000e+000
      endloop
   endfacet
   facet normal 1.000000e+000 0.000000e+000 -0.000000e+000
      outer loop
         vertex 1.850000e+001 -1.822231e+001 0.000000e+000
         vertex 1.850000e+001 1.822231e+001 0.000000e+000
         vertex 1.850000e+001 1.822231e+001 1.000000e+000
      endloop
   endfacet
   facet normal 0.000000e+000 1.000000e+000 -0.000000e+000
      outer loop
         vertex 1.322231e+001 2.350000e+001 1.000000e+000
         vertex 1.322231e+001 2.350000e+001 0.000000e+000
         vertex -1.322231e+001 2.350000e+001 1.000000e+000
      endloop
   endfacet
   facet normal 0.000000e+000 1.000000e+000 0.000000e+000
      outer loop
         vertex -1.322231e+001 2.350000e+001 1.000000e+000
         vertex 1.322231e+001 2.350000e+001 0.000000e+000
         vertex -1.322231e+001 2.350000e+001 0.000000e+000
      endloop
   endfacet
   facet normal 0.000000e+000 -1.000000e+000 0.000000e+000
      outer loop
         vertex -1.322231e+001 -2.350000e+001 1.000000e+000
         vertex -1.322231e+001 -2.350000e+001 0.000000e+000
         vertex 1.322231e+001 -2.350000e+001 1.000000e+000
      endloop
   endfacet
   facet normal 0.000000e+000 -1.000000e+000 0.000000e+000
      outer loop
         vertex 1.322231e+001 -2.350000e+001 1.000000e+000
         vertex -1.322231e+001 -2.350000e+001 0.000000e+000
         vertex 1.322231e+001 -2.350000e+001 0.000000e+000
      endloop
   endfacet
   facet normal 0.000000e+000 0.000000e+000 1.000000e+000
      outer loop
         vertex 1.322231e+001 -2.350000e+001 1.000000e+000
         vertex 1.850000e+001 -1.822231e+001 1.000000e+000
         vertex -1.322231e+001 -2.350000e+001 1.000000e+000
      endloop
   endfacet
   facet normal 0.000000e+000 0.000000e+000 1.000000e+000
      outer loop
         vertex 1.850000e+001 -1.822231e+001 1.000000e+000
         vertex 1.850000e+001 1.822231e+001 1.000000e+000
         vertex -1.322231e+001 -2.350000e+001 1.000000e+000
      endloop
   endfacet
   facet normal 0.000000e+000 0.000000e+000 1.000000e+000
      outer loop
         vertex -1.322231e+001 -2.350000e+001 1.000000e+000
         vertex 1.850000e+001 1.822231e+001 1.000000e+000
         vertex -1.850000e+001 -1.822231e+001 1.000000e+000
      endloop
   endfacet
   facet normal 0.000000e+000 0.000000e+000 1.000000e+000
      outer loop
         vertex 1.850000e+001 1.822231e+001 1.000000e+000
         vertex 1.322231e+001 2.350000e+001 1.000000e+000
         vertex -1.850000e+001 -1.822231e+001 1.000000e+000
      endloop
   endfacet
   facet normal 0.000000e+000 0.000000e+000 1.000000e+000
      outer loop
         vertex -1.850000e+001 -1.822231e+001 1.000000e+000
         vertex 1.322231e+001 2.350000e+001 1.000000e+000
         vertex -1.850000e+001 1.822231e+001 1.000000e+000
      endloop
   endfacet
   facet normal -0.000000e+000 0.000000e+000 1.000000e+000
      outer loop
         vertex 1.322231e+001 2.350000e+001 1.000000e+000
         vertex -1.322231e+001 2.350000e+001 1.000000e+000
         vertex -1.850000e+001 1.822231e+001 1.000000e+000
      endloop
   endfacet
endsolid
