solid 
   facet normal 0.000000e+000 1.000000e+000 -0.000000e+000
      outer loop
         vertex 7.500000e+000 1.550000e+001 2.000000e+001
         vertex 7.500000e+000 1.550000e+001 3.000000e+000
         vertex -7.500000e+000 1.550000e+001 2.000000e+001
      endloop
   endfacet
   facet normal 0.000000e+000 1.000000e+000 0.000000e+000
      outer loop
         vertex 7.500000e+000 1.550000e+001 3.000000e+000
         vertex -7.500000e+000 1.550000e+001 3.000000e+000
         vertex -7.500000e+000 1.550000e+001 2.000000e+001
      endloop
   endfacet
   facet normal -1.000000e+000 0.000000e+000 0.000000e+000
      outer loop
         vertex -1.050000e+001 1.250000e+001 2.000000e+001
         vertex -1.050000e+001 1.250000e+001 3.000000e+000
         vertex -1.050000e+001 -1.250000e+001 2.000000e+001
      endloop
   endfacet
   facet normal -1.000000e+000 0.000000e+000 0.000000e+000
      outer loop
         vertex -1.050000e+001 -1.250000e+001 2.000000e+001
         vertex -1.050000e+001 1.250000e+001 3.000000e+000
         vertex -1.050000e+001 -1.250000e+001 3.000000e+000
      endloop
   endfacet
   facet normal 9.800287e-001 1.988562e-001 -0.000000e+000
      outer loop
         vertex 1.050000e+001 1.250000e+001 2.000000e+001
         vertex 1.050000e+001 1.250000e+001 3.000000e+000
         vertex 1.026274e+001 1.366931e+001 2.000000e+001
      endloop
   endfacet
   facet normal 8.183161e-001 5.747683e-001 -5.391163e-004
      outer loop
         vertex 1.025349e+001 1.369091e+001 3.000000e+000
         vertex 9.554486e+000 1.468611e+001 3.000000e+000
         vertex 9.588478e+000 1.465366e+001 2.000000e+001
      endloop
   endfacet
   facet normal 1.722143e-001 9.850595e-001 -0.000000e+000
      outer loop
         vertex 8.517851e+000 1.532205e+001 3.000000e+000
         vertex 7.500000e+000 1.550000e+001 3.000000e+000
         vertex 7.500000e+000 1.550000e+001 2.000000e+001
      endloop
   endfacet
   facet normal 5.394999e-001 8.419855e-001 5.284481e-004
      outer loop
         vertex 8.583875e+000 1.529736e+001 2.000000e+001
         vertex 9.588478e+000 1.465366e+001 2.000000e+001
         vertex 9.554486e+000 1.468611e+001 3.000000e+000
      endloop
   endfacet
   facet normal 9.792424e-001 2.026926e-001 -2.748504e-004
      outer loop
         vertex 1.026274e+001 1.366931e+001 2.000000e+001
         vertex 1.050000e+001 1.250000e+001 3.000000e+000
         vertex 1.025349e+001 1.369091e+001 3.000000e+000
      endloop
   endfacet
   facet normal 5.229111e-001 8.523868e-001 -7.926691e-004
      outer loop
         vertex 8.583875e+000 1.529736e+001 2.000000e+001
         vertex 9.554486e+000 1.468611e+001 3.000000e+000
         vertex 8.517851e+000 1.532205e+001 3.000000e+000
      endloop
   endfacet
   facet normal 1.837759e-001 9.829679e-001 7.141326e-004
      outer loop
         vertex 7.500000e+000 1.550000e+001 2.000000e+001
         vertex 8.583875e+000 1.529736e+001 2.000000e+001
         vertex 8.517851e+000 1.532205e+001 3.000000e+000
      endloop
   endfacet
   facet normal 8.250124e-001 5.651145e-001 2.695506e-004
      outer loop
         vertex 1.025349e+001 1.369091e+001 3.000000e+000
         vertex 9.588478e+000 1.465366e+001 2.000000e+001
         vertex 1.026274e+001 1.366931e+001 2.000000e+001
      endloop
   endfacet
   facet normal 0.000000e+000 -1.000000e+000 0.000000e+000
      outer loop
         vertex -7.500000e+000 -1.550000e+001 2.000000e+001
         vertex -7.500000e+000 -1.550000e+001 3.000000e+000
         vertex 7.500000e+000 -1.550000e+001 2.000000e+001
      endloop
   endfacet
   facet normal 0.000000e+000 -1.000000e+000 0.000000e+000
      outer loop
         vertex -7.500000e+000 -1.550000e+001 3.000000e+000
         vertex 7.500000e+000 -1.550000e+001 3.000000e+000
         vertex 7.500000e+000 -1.550000e+001 2.000000e+001
      endloop
   endfacet
   facet normal 1.000000e+000 0.000000e+000 0.000000e+000
      outer loop
         vertex 1.050000e+001 -1.250000e+001 2.000000e+001
         vertex 1.050000e+001 -1.250000e+001 3.000000e+000
         vertex 1.050000e+001 1.250000e+001 2.000000e+001
      endloop
   endfacet
   facet normal 1.000000e+000 0.000000e+000 0.000000e+000
      outer loop
         vertex 1.050000e+001 1.250000e+001 2.000000e+001
         vertex 1.050000e+001 -1.250000e+001 3.000000e+000
         vertex 1.050000e+001 1.250000e+001 3.000000e+000
      endloop
   endfacet
   facet normal 0.000000e+000 0.000000e+000 1.000000e+000
      outer loop
         vertex 1.034820e+001 -1.344221e+001 2.000000e+001
         vertex 1.050000e+001 -1.250000e+001 2.000000e+001
         vertex 9.722302e+000 -1.451528e+001 2.000000e+001
      endloop
   endfacet
   facet normal 0.000000e+000 0.000000e+000 1.000000e+000
      outer loop
         vertex 1.050000e+001 -1.250000e+001 2.000000e+001
         vertex 1.050000e+001 1.250000e+001 2.000000e+001
         vertex 9.722302e+000 -1.451528e+001 2.000000e+001
      endloop
   endfacet
   facet normal 0.000000e+000 0.000000e+000 1.000000e+000
      outer loop
         vertex 9.722302e+000 -1.451528e+001 2.000000e+001
         vertex 1.050000e+001 1.250000e+001 2.000000e+001
         vertex 8.715349e+000 -1.524280e+001 2.000000e+001
      endloop
   endfacet
   facet normal 0.000000e+000 0.000000e+000 1.000000e+000
      outer loop
         vertex 1.050000e+001 1.250000e+001 2.000000e+001
         vertex 1.024280e+001 1.371535e+001 2.000000e+001
         vertex 8.715349e+000 -1.524280e+001 2.000000e+001
      endloop
   endfacet
   facet normal 0.000000e+000 0.000000e+000 1.000000e+000
      outer loop
         vertex 8.715349e+000 -1.524280e+001 2.000000e+001
         vertex 1.024280e+001 1.371535e+001 2.000000e+001
         vertex 7.500000e+000 -1.550000e+001 2.000000e+001
      endloop
   endfacet
   facet normal 0.000000e+000 0.000000e+000 1.000000e+000
      outer loop
         vertex 1.024280e+001 1.371535e+001 2.000000e+001
         vertex 9.515285e+000 1.472230e+001 2.000000e+001
         vertex 7.500000e+000 -1.550000e+001 2.000000e+001
      endloop
   endfacet
   facet normal 0.000000e+000 0.000000e+000 1.000000e+000
      outer loop
         vertex 7.500000e+000 -1.550000e+001 2.000000e+001
         vertex 9.515285e+000 1.472230e+001 2.000000e+001
         vertex -7.500000e+000 -1.550000e+001 2.000000e+001
      endloop
   endfacet
   facet normal 0.000000e+000 0.000000e+000 1.000000e+000
      outer loop
         vertex 9.515285e+000 1.472230e+001 2.000000e+001
         vertex 8.442214e+000 1.534820e+001 2.000000e+001
         vertex -7.500000e+000 -1.550000e+001 2.000000e+001
      endloop
   endfacet
   facet normal 0.000000e+000 0.000000e+000 1.000000e+000
      outer loop
         vertex -7.500000e+000 -1.550000e+001 2.000000e+001
         vertex 8.442214e+000 1.534820e+001 2.000000e+001
         vertex -8.442214e+000 -1.534820e+001 2.000000e+001
      endloop
   endfacet
   facet normal 0.000000e+000 0.000000e+000 1.000000e+000
      outer loop
         vertex 8.442214e+000 1.534820e+001 2.000000e+001
         vertex 7.500000e+000 1.550000e+001 2.000000e+001
         vertex -8.442214e+000 -1.534820e+001 2.000000e+001
      endloop
   endfacet
   facet normal 0.000000e+000 0.000000e+000 1.000000e+000
      outer loop
         vertex -8.442214e+000 -1.534820e+001 2.000000e+001
         vertex 7.500000e+000 1.550000e+001 2.000000e+001
         vertex -9.515285e+000 -1.472230e+001 2.000000e+001
      endloop
   endfacet
   facet normal -0.000000e+000 0.000000e+000 1.000000e+000
      outer loop
         vertex 7.500000e+000 1.550000e+001 2.000000e+001
         vertex -7.500000e+000 1.550000e+001 2.000000e+001
         vertex -9.515285e+000 -1.472230e+001 2.000000e+001
      endloop
   endfacet
   facet normal 0.000000e+000 0.000000e+000 1.000000e+000
      outer loop
         vertex -9.515285e+000 -1.472230e+001 2.000000e+001
         vertex -7.500000e+000 1.550000e+001 2.000000e+001
         vertex -1.024280e+001 -1.371535e+001 2.000000e+001
      endloop
   endfacet
   facet normal -0.000000e+000 0.000000e+000 1.000000e+000
      outer loop
         vertex -7.500000e+000 1.550000e+001 2.000000e+001
         vertex -8.715349e+000 1.524280e+001 2.000000e+001
         vertex -1.024280e+001 -1.371535e+001 2.000000e+001
      endloop
   endfacet
   facet normal 0.000000e+000 0.000000e+000 1.000000e+000
      outer loop
         vertex -1.024280e+001 -1.371535e+001 2.000000e+001
         vertex -8.715349e+000 1.524280e+001 2.000000e+001
         vertex -1.050000e+001 -1.250000e+001 2.000000e+001
      endloop
   endfacet
   facet normal -0.000000e+000 0.000000e+000 1.000000e+000
      outer loop
         vertex -8.715349e+000 1.524280e+001 2.000000e+001
         vertex -9.722302e+000 1.451528e+001 2.000000e+001
         vertex -1.050000e+001 -1.250000e+001 2.000000e+001
      endloop
   endfacet
   facet normal 0.000000e+000 0.000000e+000 1.000000e+000
      outer loop
         vertex -1.050000e+001 -1.250000e+001 2.000000e+001
         vertex -9.722302e+000 1.451528e+001 2.000000e+001
         vertex -1.050000e+001 1.250000e+001 2.000000e+001
      endloop
   endfacet
   facet normal -0.000000e+000 0.000000e+000 1.000000e+000
      outer loop
         vertex -9.722302e+000 1.451528e+001 2.000000e+001
         vertex -1.034820e+001 1.344221e+001 2.000000e+001
         vertex -1.050000e+001 1.250000e+001 2.000000e+001
      endloop
   endfacet
   facet normal 1.988562e-001 -9.800287e-001 0.000000e+000
      outer loop
         vertex 7.500000e+000 -1.550000e+001 2.000000e+001
         vertex 7.500000e+000 -1.550000e+001 3.000000e+000
         vertex 8.669309e+000 -1.526274e+001 2.000000e+001
      endloop
   endfacet
   facet normal 5.747683e-001 -8.183161e-001 -5.391163e-004
      outer loop
         vertex 8.690911e+000 -1.525349e+001 3.000000e+000
         vertex 9.686111e+000 -1.455449e+001 3.000000e+000
         vertex 9.653662e+000 -1.458848e+001 2.000000e+001
      endloop
   endfacet
   facet normal 9.850595e-001 -1.722143e-001 0.000000e+000
      outer loop
         vertex 1.032205e+001 -1.351785e+001 3.000000e+000
         vertex 1.050000e+001 -1.250000e+001 3.000000e+000
         vertex 1.050000e+001 -1.250000e+001 2.000000e+001
      endloop
   endfacet
   facet normal 8.419855e-001 -5.394999e-001 5.284481e-004
      outer loop
         vertex 1.029736e+001 -1.358387e+001 2.000000e+001
         vertex 9.653662e+000 -1.458848e+001 2.000000e+001
         vertex 9.686111e+000 -1.455449e+001 3.000000e+000
      endloop
   endfacet
   facet normal 2.026926e-001 -9.792424e-001 -2.748504e-004
      outer loop
         vertex 8.669309e+000 -1.526274e+001 2.000000e+001
         vertex 7.500000e+000 -1.550000e+001 3.000000e+000
         vertex 8.690911e+000 -1.525349e+001 3.000000e+000
      endloop
   endfacet
   facet normal 8.523868e-001 -5.229111e-001 -7.926691e-004
      outer loop
         vertex 1.029736e+001 -1.358387e+001 2.000000e+001
         vertex 9.686111e+000 -1.455449e+001 3.000000e+000
         vertex 1.032205e+001 -1.351785e+001 3.000000e+000
      endloop
   endfacet
   facet normal 9.829679e-001 -1.837759e-001 7.141326e-004
      outer loop
         vertex 1.050000e+001 -1.250000e+001 2.000000e+001
         vertex 1.029736e+001 -1.358387e+001 2.000000e+001
         vertex 1.032205e+001 -1.351785e+001 3.000000e+000
      endloop
   endfacet
   facet normal 5.651145e-001 -8.250124e-001 2.695506e-004
      outer loop
         vertex 8.690911e+000 -1.525349e+001 3.000000e+000
         vertex 9.653662e+000 -1.458848e+001 2.000000e+001
         vertex 8.669309e+000 -1.526274e+001 2.000000e+001
      endloop
   endfacet
   facet normal -0.000000e+000 0.000000e+000 -1.000000e+000
      outer loop
         vertex -7.500000e+000 1.250000e+001 0.000000e+000
         vertex 7.500000e+000 1.250000e+001 0.000000e+000
         vertex -7.500000e+000 -1.250000e+001 0.000000e+000
      endloop
   endfacet
   facet normal 0.000000e+000 0.000000e+000 -1.000000e+000
      outer loop
         vertex 7.500000e+000 1.250000e+001 0.000000e+000
         vertex 7.500000e+000 -1.250000e+001 0.000000e+000
         vertex -7.500000e+000 -1.250000e+001 0.000000e+000
      endloop
   endfacet
   facet normal -9.800287e-001 -1.988562e-001 0.000000e+000
      outer loop
         vertex -1.050000e+001 -1.250000e+001 2.000000e+001
         vertex -1.050000e+001 -1.250000e+001 3.000000e+000
         vertex -1.026274e+001 -1.366931e+001 2.000000e+001
      endloop
   endfacet
   facet normal -8.183161e-001 -5.747683e-001 -5.391163e-004
      outer loop
         vertex -1.025349e+001 -1.369091e+001 3.000000e+000
         vertex -9.554486e+000 -1.468611e+001 3.000000e+000
         vertex -9.588478e+000 -1.465366e+001 2.000000e+001
      endloop
   endfacet
   facet normal -1.722143e-001 -9.850595e-001 0.000000e+000
      outer loop
         vertex -8.517851e+000 -1.532205e+001 3.000000e+000
         vertex -7.500000e+000 -1.550000e+001 3.000000e+000
         vertex -7.500000e+000 -1.550000e+001 2.000000e+001
      endloop
   endfacet
   facet normal -5.394999e-001 -8.419855e-001 5.284481e-004
      outer loop
         vertex -8.583875e+000 -1.529736e+001 2.000000e+001
         vertex -9.588478e+000 -1.465366e+001 2.000000e+001
         vertex -9.554486e+000 -1.468611e+001 3.000000e+000
      endloop
   endfacet
   facet normal -9.792424e-001 -2.026926e-001 -2.748504e-004
      outer loop
         vertex -1.026274e+001 -1.366931e+001 2.000000e+001
         vertex -1.050000e+001 -1.250000e+001 3.000000e+000
         vertex -1.025349e+001 -1.369091e+001 3.000000e+000
      endloop
   endfacet
   facet normal -5.229111e-001 -8.523868e-001 -7.926691e-004
      outer loop
         vertex -8.583875e+000 -1.529736e+001 2.000000e+001
         vertex -9.554486e+000 -1.468611e+001 3.000000e+000
         vertex -8.517851e+000 -1.532205e+001 3.000000e+000
      endloop
   endfacet
   facet normal -1.837759e-001 -9.829679e-001 7.141326e-004
      outer loop
         vertex -7.500000e+000 -1.550000e+001 2.000000e+001
         vertex -8.583875e+000 -1.529736e+001 2.000000e+001
         vertex -8.517851e+000 -1.532205e+001 3.000000e+000
      endloop
   endfacet
   facet normal -8.250124e-001 -5.651145e-001 2.695506e-004
      outer loop
         vertex -1.025349e+001 -1.369091e+001 3.000000e+000
         vertex -9.588478e+000 -1.465366e+001 2.000000e+001
         vertex -1.026274e+001 -1.366931e+001 2.000000e+001
      endloop
   endfacet
   facet normal -1.988562e-001 9.800287e-001 0.000000e+000
      outer loop
         vertex -7.500000e+000 1.550000e+001 2.000000e+001
         vertex -7.500000e+000 1.550000e+001 3.000000e+000
         vertex -8.669309e+000 1.526274e+001 2.000000e+001
      endloop
   endfacet
   facet normal -5.747683e-001 8.183161e-001 -5.391163e-004
      outer loop
         vertex -8.690911e+000 1.525349e+001 3.000000e+000
         vertex -9.686111e+000 1.455449e+001 3.000000e+000
         vertex -9.653662e+000 1.458848e+001 2.000000e+001
      endloop
   endfacet
   facet normal -9.850595e-001 1.722143e-001 0.000000e+000
      outer loop
         vertex -1.032205e+001 1.351785e+001 3.000000e+000
         vertex -1.050000e+001 1.250000e+001 3.000000e+000
         vertex -1.050000e+001 1.250000e+001 2.000000e+001
      endloop
   endfacet
   facet normal -8.419855e-001 5.394999e-001 5.284481e-004
      outer loop
         vertex -1.029736e+001 1.358387e+001 2.000000e+001
         vertex -9.653662e+000 1.458848e+001 2.000000e+001
         vertex -9.686111e+000 1.455449e+001 3.000000e+000
      endloop
   endfacet
   facet normal -2.026926e-001 9.792424e-001 -2.748504e-004
      outer loop
         vertex -8.669309e+000 1.526274e+001 2.000000e+001
         vertex -7.500000e+000 1.550000e+001 3.000000e+000
         vertex -8.690911e+000 1.525349e+001 3.000000e+000
      endloop
   endfacet
   facet normal -8.523868e-001 5.229111e-001 -7.926691e-004
      outer loop
         vertex -1.029736e+001 1.358387e+001 2.000000e+001
         vertex -9.686111e+000 1.455449e+001 3.000000e+000
         vertex -1.032205e+001 1.351785e+001 3.000000e+000
      endloop
   endfacet
   facet normal -9.829679e-001 1.837759e-001 7.141326e-004
      outer loop
         vertex -1.050000e+001 1.250000e+001 2.000000e+001
         vertex -1.029736e+001 1.358387e+001 2.000000e+001
         vertex -1.032205e+001 1.351785e+001 3.000000e+000
      endloop
   endfacet
   facet normal -5.651145e-001 8.250124e-001 2.695506e-004
      outer loop
         vertex -8.690911e+000 1.525349e+001 3.000000e+000
         vertex -9.653662e+000 1.458848e+001 2.000000e+001
         vertex -8.669309e+000 1.526274e+001 2.000000e+001
      endloop
   endfacet
   facet normal -6.954386e-001 -4.646773e-001 -5.481243e-001
      outer loop
         vertex -9.000000e+000 -1.400000e+001 8.786796e-001
         vertex -9.459845e+000 -1.445984e+001 1.851950e+000
         vertex -1.006066e+001 -1.356066e+001 1.851950e+000
      endloop
   endfacet
   facet normal -6.954385e-001 -4.646774e-001 -5.481242e-001
      outer loop
         vertex -9.459845e+000 -1.331179e+001 8.786796e-001
         vertex -9.000000e+000 -1.400000e+001 8.786796e-001
         vertex -1.006066e+001 -1.356066e+001 1.851950e+000
      endloop
   endfacet
   facet normal -4.646773e-001 -6.954386e-001 -5.481242e-001
      outer loop
         vertex -8.311794e+000 -1.445984e+001 8.786796e-001
         vertex -8.560660e+000 -1.506066e+001 1.851950e+000
         vertex -9.459845e+000 -1.445984e+001 1.851950e+000
      endloop
   endfacet
   facet normal -4.646774e-001 -6.954385e-001 -5.481243e-001
      outer loop
         vertex -9.000000e+000 -1.400000e+001 8.786796e-001
         vertex -8.311794e+000 -1.445984e+001 8.786796e-001
         vertex -9.459845e+000 -1.445984e+001 1.851950e+000
      endloop
   endfacet
   facet normal -4.681398e-001 -3.128012e-001 -8.264385e-001
      outer loop
         vertex -8.311794e+000 -1.331179e+001 2.283614e-001
         vertex -9.000000e+000 -1.400000e+001 8.786796e-001
         vertex -9.459845e+000 -1.331179e+001 8.786796e-001
      endloop
   endfacet
   facet normal -4.681398e-001 -3.128008e-001 -8.264386e-001
      outer loop
         vertex -8.560660e+000 -1.293934e+001 2.283614e-001
         vertex -8.311794e+000 -1.331179e+001 2.283614e-001
         vertex -9.459845e+000 -1.331179e+001 8.786796e-001
      endloop
   endfacet
   facet normal -3.128011e-001 -4.681397e-001 -8.264386e-001
      outer loop
         vertex -7.939340e+000 -1.356066e+001 2.283614e-001
         vertex -8.311794e+000 -1.445984e+001 8.786796e-001
         vertex -9.000000e+000 -1.400000e+001 8.786796e-001
      endloop
   endfacet
   facet normal -3.128009e-001 -4.681400e-001 -8.264385e-001
      outer loop
         vertex -8.311794e+000 -1.331179e+001 2.283614e-001
         vertex -7.939340e+000 -1.356066e+001 2.283614e-001
         vertex -9.000000e+000 -1.400000e+001 8.786796e-001
      endloop
   endfacet
   facet normal -1.687423e-001 -9.652003e-001 -1.997860e-001
      outer loop
         vertex -8.517851e+000 -1.532205e+001 3.000000e+000
         vertex -7.500000e+000 -1.525349e+001 1.809089e+000
         vertex -7.500000e+000 -1.550000e+001 3.000000e+000
      endloop
   endfacet
   facet normal -4.680671e-002 -5.223377e-001 -8.514531e-001
      outer loop
         vertex -7.939340e+000 -1.356066e+001 2.283614e-001
         vertex -7.500000e+000 -1.351785e+001 1.779475e-001
         vertex -7.500000e+000 -1.455449e+001 8.138883e-001
      endloop
   endfacet
   facet normal 0.000000e+000 0.000000e+000 -0.000000e+000
      outer loop
         vertex -7.500000e+000 -1.351785e+001 1.779475e-001
         vertex -7.500000e+000 -1.250000e+001 0.000000e+000
         vertex -7.500000e+000 -1.250000e+001 0.000000e+000
      endloop
   endfacet
   facet normal 0.000000e+000 -0.000000e+000 0.000000e+000
      outer loop
         vertex -8.517851e+000 -1.250000e+001 1.779475e-001
         vertex -7.500000e+000 -1.250000e+001 0.000000e+000
         vertex -7.500000e+000 -1.250000e+001 0.000000e+000
      endloop
   endfacet
   facet normal -8.102701e-001 -1.398866e-001 -5.691169e-001
      outer loop
         vertex -9.459845e+000 -1.331179e+001 8.786796e-001
         vertex -1.025349e+001 -1.250000e+001 1.809089e+000
         vertex -9.554486e+000 -1.250000e+001 8.138883e-001
      endloop
   endfacet
   facet normal -9.624743e-001 -1.992218e-001 -1.842659e-001
      outer loop
         vertex -1.006066e+001 -1.356066e+001 1.851950e+000
         vertex -1.025349e+001 -1.369091e+001 3.000000e+000
         vertex -1.050000e+001 -1.250000e+001 3.000000e+000
      endloop
   endfacet
   facet normal -5.151206e-001 -8.396876e-001 -1.719751e-001
      outer loop
         vertex -8.560660e+000 -1.506066e+001 1.851950e+000
         vertex -8.517851e+000 -1.532205e+001 3.000000e+000
         vertex -9.554486e+000 -1.468611e+001 3.000000e+000
      endloop
   endfacet
   facet normal -5.437466e-001 -8.137742e-001 -2.052099e-001
      outer loop
         vertex -9.554486e+000 -1.468611e+001 3.000000e+000
         vertex -9.459845e+000 -1.445984e+001 1.851950e+000
         vertex -8.560660e+000 -1.506066e+001 1.851950e+000
      endloop
   endfacet
   facet normal -1.709433e-001 -8.182635e-001 -5.488380e-001
      outer loop
         vertex -7.500000e+000 -1.525349e+001 1.809089e+000
         vertex -8.560660e+000 -1.506066e+001 1.851950e+000
         vertex -8.311794e+000 -1.445984e+001 8.786796e-001
      endloop
   endfacet
   facet normal -1.296669e-001 -5.452560e-001 -8.281802e-001
      outer loop
         vertex -7.500000e+000 -1.455449e+001 8.138883e-001
         vertex -8.311794e+000 -1.445984e+001 8.786796e-001
         vertex -7.939340e+000 -1.356066e+001 2.283614e-001
      endloop
   endfacet
   facet normal -1.104266e-001 -1.652652e-001 -9.800476e-001
      outer loop
         vertex -7.500000e+000 -1.250000e+001 0.000000e+000
         vertex -7.939340e+000 -1.356066e+001 2.283614e-001
         vertex -8.311794e+000 -1.331179e+001 2.283614e-001
      endloop
   endfacet
   facet normal -9.581129e-002 -1.714224e-001 -9.805277e-001
      outer loop
         vertex -7.500000e+000 -1.250000e+001 0.000000e+000
         vertex -7.500000e+000 -1.351785e+001 1.779475e-001
         vertex -7.939340e+000 -1.356066e+001 2.283614e-001
      endloop
   endfacet
   facet normal -5.452560e-001 -1.296669e-001 -8.281802e-001
      outer loop
         vertex -8.560660e+000 -1.293934e+001 2.283614e-001
         vertex -9.459845e+000 -1.331179e+001 8.786796e-001
         vertex -9.554486e+000 -1.250000e+001 8.138883e-001
      endloop
   endfacet
   facet normal -8.148986e-001 -5.444979e-001 -1.986511e-001
      outer loop
         vertex -9.459845e+000 -1.445984e+001 1.851950e+000
         vertex -1.025349e+001 -1.369091e+001 3.000000e+000
         vertex -1.006066e+001 -1.356066e+001 1.851950e+000
      endloop
   endfacet
   facet normal -1.398866e-001 -8.102701e-001 -5.691169e-001
      outer loop
         vertex -7.500000e+000 -1.455449e+001 8.138883e-001
         vertex -7.500000e+000 -1.525349e+001 1.809089e+000
         vertex -8.311794e+000 -1.445984e+001 8.786796e-001
      endloop
   endfacet
   facet normal 0.000000e+000 0.000000e+000 0.000000e+000
      outer loop
         vertex -7.500000e+000 -1.250000e+001 0.000000e+000
         vertex -7.939340e+000 -1.356066e+001 2.283614e-001
         vertex -7.500000e+000 -1.250000e+001 0.000000e+000
      endloop
   endfacet
   facet normal 0.000000e+000 -0.000000e+000 0.000000e+000
      outer loop
         vertex -8.311794e+000 -1.331179e+001 2.283614e-001
         vertex -7.500000e+000 -1.250000e+001 0.000000e+000
         vertex -7.500000e+000 -1.250000e+001 0.000000e+000
      endloop
   endfacet
   facet normal -9.626922e-001 -1.830751e-001 -1.992668e-001
      outer loop
         vertex -1.006066e+001 -1.356066e+001 1.851950e+000
         vertex -1.050000e+001 -1.250000e+001 3.000000e+000
         vertex -1.025349e+001 -1.250000e+001 1.809089e+000
      endloop
   endfacet
   facet normal -8.182635e-001 -1.709433e-001 -5.488380e-001
      outer loop
         vertex -1.025349e+001 -1.250000e+001 1.809089e+000
         vertex -9.459845e+000 -1.331179e+001 8.786796e-001
         vertex -1.006066e+001 -1.356066e+001 1.851950e+000
      endloop
   endfacet
   facet normal -1.830937e-001 -9.600193e-001 -2.117536e-001
      outer loop
         vertex -8.560660e+000 -1.506066e+001 1.851950e+000
         vertex -7.500000e+000 -1.525349e+001 1.809089e+000
         vertex -8.517851e+000 -1.532205e+001 3.000000e+000
      endloop
   endfacet
   facet normal -8.052691e-001 -5.656044e-001 -1.778577e-001
      outer loop
         vertex -1.025349e+001 -1.369091e+001 3.000000e+000
         vertex -9.459845e+000 -1.445984e+001 1.851950e+000
         vertex -9.554486e+000 -1.468611e+001 3.000000e+000
      endloop
   endfacet
   facet normal -5.223377e-001 -4.680671e-002 -8.514531e-001
      outer loop
         vertex -8.560660e+000 -1.293934e+001 2.283614e-001
         vertex -9.554486e+000 -1.250000e+001 8.138883e-001
         vertex -8.517851e+000 -1.250000e+001 1.779475e-001
      endloop
   endfacet
   facet normal -1.714224e-001 -9.581129e-002 -9.805277e-001
      outer loop
         vertex -8.560660e+000 -1.293934e+001 2.283614e-001
         vertex -8.517851e+000 -1.250000e+001 1.779475e-001
         vertex -7.500000e+000 -1.250000e+001 0.000000e+000
      endloop
   endfacet
   facet normal -1.652652e-001 -1.104266e-001 -9.800476e-001
      outer loop
         vertex -8.311794e+000 -1.331179e+001 2.283614e-001
         vertex -8.560660e+000 -1.293934e+001 2.283614e-001
         vertex -7.500000e+000 -1.250000e+001 0.000000e+000
      endloop
   endfacet
   facet normal 0.000000e+000 9.792424e-001 -2.026926e-001
      outer loop
         vertex 7.500000e+000 1.525349e+001 1.809089e+000
         vertex -7.500000e+000 1.525349e+001 1.809089e+000
         vertex -7.500000e+000 1.550000e+001 3.000000e+000
      endloop
   endfacet
   facet normal 0.000000e+000 5.229109e-001 -8.523874e-001
      outer loop
         vertex 7.500000e+000 1.351785e+001 1.779475e-001
         vertex -7.500000e+000 1.351785e+001 1.779475e-001
         vertex -7.500000e+000 1.455449e+001 8.138883e-001
      endloop
   endfacet
   facet normal 0.000000e+000 1.722147e-001 -9.850594e-001
      outer loop
         vertex -7.500000e+000 1.351785e+001 1.779475e-001
         vertex 7.500000e+000 1.250000e+001 0.000000e+000
         vertex -7.500000e+000 1.250000e+001 0.000000e+000
      endloop
   endfacet
   facet normal 0.000000e+000 8.183162e-001 -5.747683e-001
      outer loop
         vertex -7.500000e+000 1.525349e+001 1.809089e+000
         vertex 7.500000e+000 1.525349e+001 1.809089e+000
         vertex 7.500000e+000 1.455449e+001 8.138883e-001
      endloop
   endfacet
   facet normal 0.000000e+000 9.792424e-001 -2.026926e-001
      outer loop
         vertex 7.500000e+000 1.525349e+001 1.809089e+000
         vertex -7.500000e+000 1.550000e+001 3.000000e+000
         vertex 7.500000e+000 1.550000e+001 3.000000e+000
      endloop
   endfacet
   facet normal 0.000000e+000 1.722147e-001 -9.850594e-001
      outer loop
         vertex 7.500000e+000 1.351785e+001 1.779475e-001
         vertex 7.500000e+000 1.250000e+001 0.000000e+000
         vertex -7.500000e+000 1.351785e+001 1.779475e-001
      endloop
   endfacet
   facet normal 0.000000e+000 8.183162e-001 -5.747683e-001
      outer loop
         vertex 7.500000e+000 1.455449e+001 8.138883e-001
         vertex -7.500000e+000 1.455449e+001 8.138883e-001
         vertex -7.500000e+000 1.525349e+001 1.809089e+000
      endloop
   endfacet
   facet normal 0.000000e+000 5.229109e-001 -8.523874e-001
      outer loop
         vertex 7.500000e+000 1.455449e+001 8.138883e-001
         vertex 7.500000e+000 1.351785e+001 1.779475e-001
         vertex -7.500000e+000 1.455449e+001 8.138883e-001
      endloop
   endfacet
   facet normal 4.646773e-001 -6.954386e-001 -5.481243e-001
      outer loop
         vertex 9.000000e+000 -1.400000e+001 8.786796e-001
         vertex 9.459845e+000 -1.445984e+001 1.851950e+000
         vertex 8.560660e+000 -1.506066e+001 1.851950e+000
      endloop
   endfacet
   facet normal 4.646774e-001 -6.954385e-001 -5.481242e-001
      outer loop
         vertex 8.311794e+000 -1.445984e+001 8.786796e-001
         vertex 9.000000e+000 -1.400000e+001 8.786796e-001
         vertex 8.560660e+000 -1.506066e+001 1.851950e+000
      endloop
   endfacet
   facet normal 6.954386e-001 -4.646773e-001 -5.481242e-001
      outer loop
         vertex 9.459845e+000 -1.331179e+001 8.786796e-001
         vertex 1.006066e+001 -1.356066e+001 1.851950e+000
         vertex 9.459845e+000 -1.445984e+001 1.851950e+000
      endloop
   endfacet
   facet normal 6.954385e-001 -4.646774e-001 -5.481243e-001
      outer loop
         vertex 9.000000e+000 -1.400000e+001 8.786796e-001
         vertex 9.459845e+000 -1.331179e+001 8.786796e-001
         vertex 9.459845e+000 -1.445984e+001 1.851950e+000
      endloop
   endfacet
   facet normal 3.128012e-001 -4.681398e-001 -8.264385e-001
      outer loop
         vertex 8.311794e+000 -1.331179e+001 2.283614e-001
         vertex 9.000000e+000 -1.400000e+001 8.786796e-001
         vertex 8.311794e+000 -1.445984e+001 8.786796e-001
      endloop
   endfacet
   facet normal 3.128008e-001 -4.681398e-001 -8.264386e-001
      outer loop
         vertex 7.939340e+000 -1.356066e+001 2.283614e-001
         vertex 8.311794e+000 -1.331179e+001 2.283614e-001
         vertex 8.311794e+000 -1.445984e+001 8.786796e-001
      endloop
   endfacet
   facet normal 4.681397e-001 -3.128011e-001 -8.264386e-001
      outer loop
         vertex 8.560660e+000 -1.293934e+001 2.283614e-001
         vertex 9.459845e+000 -1.331179e+001 8.786796e-001
         vertex 9.000000e+000 -1.400000e+001 8.786796e-001
      endloop
   endfacet
   facet normal 4.681400e-001 -3.128009e-001 -8.264385e-001
      outer loop
         vertex 8.311794e+000 -1.331179e+001 2.283614e-001
         vertex 8.560660e+000 -1.293934e+001 2.283614e-001
         vertex 9.000000e+000 -1.400000e+001 8.786796e-001
      endloop
   endfacet
   facet normal 9.652003e-001 -1.687423e-001 -1.997860e-001
      outer loop
         vertex 1.032205e+001 -1.351785e+001 3.000000e+000
         vertex 1.025349e+001 -1.250000e+001 1.809089e+000
         vertex 1.050000e+001 -1.250000e+001 3.000000e+000
      endloop
   endfacet
   facet normal 5.223377e-001 -4.680671e-002 -8.514531e-001
      outer loop
         vertex 8.560660e+000 -1.293934e+001 2.283614e-001
         vertex 8.517851e+000 -1.250000e+001 1.779475e-001
         vertex 9.554486e+000 -1.250000e+001 8.138883e-001
      endloop
   endfacet
   facet normal 0.000000e+000 0.000000e+000 0.000000e+000
      outer loop
         vertex 8.517851e+000 -1.250000e+001 1.779475e-001
         vertex 7.500000e+000 -1.250000e+001 0.000000e+000
         vertex 7.500000e+000 -1.250000e+001 0.000000e+000
      endloop
   endfacet
   facet normal 0.000000e+000 0.000000e+000 -0.000000e+000
      outer loop
         vertex 7.500000e+000 -1.351785e+001 1.779475e-001
         vertex 7.500000e+000 -1.250000e+001 0.000000e+000
         vertex 7.500000e+000 -1.250000e+001 0.000000e+000
      endloop
   endfacet
   facet normal 1.398866e-001 -8.102701e-001 -5.691169e-001
      outer loop
         vertex 8.311794e+000 -1.445984e+001 8.786796e-001
         vertex 7.500000e+000 -1.525349e+001 1.809089e+000
         vertex 7.500000e+000 -1.455449e+001 8.138883e-001
      endloop
   endfacet
   facet normal 1.992218e-001 -9.624743e-001 -1.842659e-001
      outer loop
         vertex 8.560660e+000 -1.506066e+001 1.851950e+000
         vertex 8.690911e+000 -1.525349e+001 3.000000e+000
         vertex 7.500000e+000 -1.550000e+001 3.000000e+000
      endloop
   endfacet
   facet normal 8.396876e-001 -5.151206e-001 -1.719751e-001
      outer loop
         vertex 1.006066e+001 -1.356066e+001 1.851950e+000
         vertex 1.032205e+001 -1.351785e+001 3.000000e+000
         vertex 9.686111e+000 -1.455449e+001 3.000000e+000
      endloop
   endfacet
   facet normal 8.137742e-001 -5.437466e-001 -2.052099e-001
      outer loop
         vertex 9.686111e+000 -1.455449e+001 3.000000e+000
         vertex 9.459845e+000 -1.445984e+001 1.851950e+000
         vertex 1.006066e+001 -1.356066e+001 1.851950e+000
      endloop
   endfacet
   facet normal 8.182635e-001 -1.709433e-001 -5.488380e-001
      outer loop
         vertex 1.025349e+001 -1.250000e+001 1.809089e+000
         vertex 1.006066e+001 -1.356066e+001 1.851950e+000
         vertex 9.459845e+000 -1.331179e+001 8.786796e-001
      endloop
   endfacet
   facet normal 5.452560e-001 -1.296669e-001 -8.281802e-001
      outer loop
         vertex 9.554486e+000 -1.250000e+001 8.138883e-001
         vertex 9.459845e+000 -1.331179e+001 8.786796e-001
         vertex 8.560660e+000 -1.293934e+001 2.283614e-001
      endloop
   endfacet
   facet normal 1.652652e-001 -1.104266e-001 -9.800476e-001
      outer loop
         vertex 7.500000e+000 -1.250000e+001 0.000000e+000
         vertex 8.560660e+000 -1.293934e+001 2.283614e-001
         vertex 8.311794e+000 -1.331179e+001 2.283614e-001
      endloop
   endfacet
   facet normal 1.714224e-001 -9.581129e-002 -9.805277e-001
      outer loop
         vertex 7.500000e+000 -1.250000e+001 0.000000e+000
         vertex 8.517851e+000 -1.250000e+001 1.779475e-001
         vertex 8.560660e+000 -1.293934e+001 2.283614e-001
      endloop
   endfacet
   facet normal 1.296669e-001 -5.452560e-001 -8.281802e-001
      outer loop
         vertex 7.939340e+000 -1.356066e+001 2.283614e-001
         vertex 8.311794e+000 -1.445984e+001 8.786796e-001
         vertex 7.500000e+000 -1.455449e+001 8.138883e-001
      endloop
   endfacet
   facet normal 5.444979e-001 -8.148986e-001 -1.986511e-001
      outer loop
         vertex 9.459845e+000 -1.445984e+001 1.851950e+000
         vertex 8.690911e+000 -1.525349e+001 3.000000e+000
         vertex 8.560660e+000 -1.506066e+001 1.851950e+000
      endloop
   endfacet
   facet normal 8.102701e-001 -1.398866e-001 -5.691169e-001
      outer loop
         vertex 9.554486e+000 -1.250000e+001 8.138883e-001
         vertex 1.025349e+001 -1.250000e+001 1.809089e+000
         vertex 9.459845e+000 -1.331179e+001 8.786796e-001
      endloop
   endfacet
   facet normal 0.000000e+000 0.000000e+000 0.000000e+000
      outer loop
         vertex 7.500000e+000 -1.250000e+001 0.000000e+000
         vertex 8.560660e+000 -1.293934e+001 2.283614e-001
         vertex 7.500000e+000 -1.250000e+001 0.000000e+000
      endloop
   endfacet
   facet normal 0.000000e+000 0.000000e+000 -0.000000e+000
      outer loop
         vertex 8.311794e+000 -1.331179e+001 2.283614e-001
         vertex 7.500000e+000 -1.250000e+001 0.000000e+000
         vertex 7.500000e+000 -1.250000e+001 0.000000e+000
      endloop
   endfacet
   facet normal 1.830751e-001 -9.626922e-001 -1.992668e-001
      outer loop
         vertex 8.560660e+000 -1.506066e+001 1.851950e+000
         vertex 7.500000e+000 -1.550000e+001 3.000000e+000
         vertex 7.500000e+000 -1.525349e+001 1.809089e+000
      endloop
   endfacet
   facet normal 1.709433e-001 -8.182635e-001 -5.488380e-001
      outer loop
         vertex 7.500000e+000 -1.525349e+001 1.809089e+000
         vertex 8.311794e+000 -1.445984e+001 8.786796e-001
         vertex 8.560660e+000 -1.506066e+001 1.851950e+000
      endloop
   endfacet
   facet normal 9.600193e-001 -1.830937e-001 -2.117536e-001
      outer loop
         vertex 1.006066e+001 -1.356066e+001 1.851950e+000
         vertex 1.025349e+001 -1.250000e+001 1.809089e+000
         vertex 1.032205e+001 -1.351785e+001 3.000000e+000
      endloop
   endfacet
   facet normal 5.656044e-001 -8.052691e-001 -1.778577e-001
      outer loop
         vertex 8.690911e+000 -1.525349e+001 3.000000e+000
         vertex 9.459845e+000 -1.445984e+001 1.851950e+000
         vertex 9.686111e+000 -1.455449e+001 3.000000e+000
      endloop
   endfacet
   facet normal 4.680671e-002 -5.223377e-001 -8.514531e-001
      outer loop
         vertex 7.939340e+000 -1.356066e+001 2.283614e-001
         vertex 7.500000e+000 -1.455449e+001 8.138883e-001
         vertex 7.500000e+000 -1.351785e+001 1.779475e-001
      endloop
   endfacet
   facet normal 9.581129e-002 -1.714224e-001 -9.805277e-001
      outer loop
         vertex 7.939340e+000 -1.356066e+001 2.283614e-001
         vertex 7.500000e+000 -1.351785e+001 1.779475e-001
         vertex 7.500000e+000 -1.250000e+001 0.000000e+000
      endloop
   endfacet
   facet normal 1.104266e-001 -1.652652e-001 -9.800476e-001
      outer loop
         vertex 8.311794e+000 -1.331179e+001 2.283614e-001
         vertex 7.939340e+000 -1.356066e+001 2.283614e-001
         vertex 7.500000e+000 -1.250000e+001 0.000000e+000
      endloop
   endfacet
   facet normal -9.792424e-001 0.000000e+000 -2.026926e-001
      outer loop
         vertex -1.025349e+001 1.250000e+001 1.809089e+000
         vertex -1.025349e+001 -1.250000e+001 1.809089e+000
         vertex -1.050000e+001 -1.250000e+001 3.000000e+000
      endloop
   endfacet
   facet normal -5.229109e-001 0.000000e+000 -8.523874e-001
      outer loop
         vertex -8.517851e+000 1.250000e+001 1.779475e-001
         vertex -8.517851e+000 -1.250000e+001 1.779475e-001
         vertex -9.554486e+000 -1.250000e+001 8.138883e-001
      endloop
   endfacet
   facet normal -1.722147e-001 -0.000000e+000 -9.850594e-001
      outer loop
         vertex -8.517851e+000 -1.250000e+001 1.779475e-001
         vertex -7.500000e+000 1.250000e+001 0.000000e+000
         vertex -7.500000e+000 -1.250000e+001 0.000000e+000
      endloop
   endfacet
   facet normal -8.183162e-001 -0.000000e+000 -5.747683e-001
      outer loop
         vertex -1.025349e+001 -1.250000e+001 1.809089e+000
         vertex -1.025349e+001 1.250000e+001 1.809089e+000
         vertex -9.554486e+000 1.250000e+001 8.138883e-001
      endloop
   endfacet
   facet normal -9.792424e-001 0.000000e+000 -2.026926e-001
      outer loop
         vertex -1.025349e+001 1.250000e+001 1.809089e+000
         vertex -1.050000e+001 -1.250000e+001 3.000000e+000
         vertex -1.050000e+001 1.250000e+001 3.000000e+000
      endloop
   endfacet
   facet normal -1.722147e-001 0.000000e+000 -9.850594e-001
      outer loop
         vertex -8.517851e+000 1.250000e+001 1.779475e-001
         vertex -7.500000e+000 1.250000e+001 0.000000e+000
         vertex -8.517851e+000 -1.250000e+001 1.779475e-001
      endloop
   endfacet
   facet normal -8.183162e-001 0.000000e+000 -5.747683e-001
      outer loop
         vertex -9.554486e+000 1.250000e+001 8.138883e-001
         vertex -9.554486e+000 -1.250000e+001 8.138883e-001
         vertex -1.025349e+001 -1.250000e+001 1.809089e+000
      endloop
   endfacet
   facet normal -5.229109e-001 0.000000e+000 -8.523874e-001
      outer loop
         vertex -9.554486e+000 1.250000e+001 8.138883e-001
         vertex -8.517851e+000 1.250000e+001 1.779475e-001
         vertex -9.554486e+000 -1.250000e+001 8.138883e-001
      endloop
   endfacet
   facet normal -4.646773e-001 6.954386e-001 -5.481243e-001
      outer loop
         vertex -9.000000e+000 1.400000e+001 8.786796e-001
         vertex -9.459845e+000 1.445984e+001 1.851950e+000
         vertex -8.560660e+000 1.506066e+001 1.851950e+000
      endloop
   endfacet
   facet normal -4.646774e-001 6.954385e-001 -5.481242e-001
      outer loop
         vertex -8.311794e+000 1.445984e+001 8.786796e-001
         vertex -9.000000e+000 1.400000e+001 8.786796e-001
         vertex -8.560660e+000 1.506066e+001 1.851950e+000
      endloop
   endfacet
   facet normal -6.954386e-001 4.646773e-001 -5.481242e-001
      outer loop
         vertex -9.459845e+000 1.331179e+001 8.786796e-001
         vertex -1.006066e+001 1.356066e+001 1.851950e+000
         vertex -9.459845e+000 1.445984e+001 1.851950e+000
      endloop
   endfacet
   facet normal -6.954385e-001 4.646774e-001 -5.481243e-001
      outer loop
         vertex -9.000000e+000 1.400000e+001 8.786796e-001
         vertex -9.459845e+000 1.331179e+001 8.786796e-001
         vertex -9.459845e+000 1.445984e+001 1.851950e+000
      endloop
   endfacet
   facet normal -3.128012e-001 4.681398e-001 -8.264385e-001
      outer loop
         vertex -8.311794e+000 1.331179e+001 2.283614e-001
         vertex -9.000000e+000 1.400000e+001 8.786796e-001
         vertex -8.311794e+000 1.445984e+001 8.786796e-001
      endloop
   endfacet
   facet normal -3.128008e-001 4.681398e-001 -8.264386e-001
      outer loop
         vertex -7.939340e+000 1.356066e+001 2.283614e-001
         vertex -8.311794e+000 1.331179e+001 2.283614e-001
         vertex -8.311794e+000 1.445984e+001 8.786796e-001
      endloop
   endfacet
   facet normal -4.681397e-001 3.128011e-001 -8.264386e-001
      outer loop
         vertex -8.560660e+000 1.293934e+001 2.283614e-001
         vertex -9.459845e+000 1.331179e+001 8.786796e-001
         vertex -9.000000e+000 1.400000e+001 8.786796e-001
      endloop
   endfacet
   facet normal -4.681400e-001 3.128009e-001 -8.264385e-001
      outer loop
         vertex -8.311794e+000 1.331179e+001 2.283614e-001
         vertex -8.560660e+000 1.293934e+001 2.283614e-001
         vertex -9.000000e+000 1.400000e+001 8.786796e-001
      endloop
   endfacet
   facet normal -9.652003e-001 1.687423e-001 -1.997860e-001
      outer loop
         vertex -1.032205e+001 1.351785e+001 3.000000e+000
         vertex -1.025349e+001 1.250000e+001 1.809089e+000
         vertex -1.050000e+001 1.250000e+001 3.000000e+000
      endloop
   endfacet
   facet normal -5.223377e-001 4.680671e-002 -8.514531e-001
      outer loop
         vertex -8.560660e+000 1.293934e+001 2.283614e-001
         vertex -8.517851e+000 1.250000e+001 1.779475e-001
         vertex -9.554486e+000 1.250000e+001 8.138883e-001
      endloop
   endfacet
   facet normal 0.000000e+000 -0.000000e+000 0.000000e+000
      outer loop
         vertex -8.517851e+000 1.250000e+001 1.779475e-001
         vertex -7.500000e+000 1.250000e+001 0.000000e+000
         vertex -7.500000e+000 1.250000e+001 0.000000e+000
      endloop
   endfacet
   facet normal 0.000000e+000 0.000000e+000 0.000000e+000
      outer loop
         vertex -7.500000e+000 1.351785e+001 1.779475e-001
         vertex -7.500000e+000 1.250000e+001 0.000000e+000
         vertex -7.500000e+000 1.250000e+001 0.000000e+000
      endloop
   endfacet
   facet normal -1.398866e-001 8.102701e-001 -5.691169e-001
      outer loop
         vertex -8.311794e+000 1.445984e+001 8.786796e-001
         vertex -7.500000e+000 1.525349e+001 1.809089e+000
         vertex -7.500000e+000 1.455449e+001 8.138883e-001
      endloop
   endfacet
   facet normal -1.992218e-001 9.624743e-001 -1.842659e-001
      outer loop
         vertex -8.560660e+000 1.506066e+001 1.851950e+000
         vertex -8.690911e+000 1.525349e+001 3.000000e+000
         vertex -7.500000e+000 1.550000e+001 3.000000e+000
      endloop
   endfacet
   facet normal -8.396876e-001 5.151206e-001 -1.719751e-001
      outer loop
         vertex -1.006066e+001 1.356066e+001 1.851950e+000
         vertex -1.032205e+001 1.351785e+001 3.000000e+000
         vertex -9.686111e+000 1.455449e+001 3.000000e+000
      endloop
   endfacet
   facet normal -8.137742e-001 5.437466e-001 -2.052099e-001
      outer loop
         vertex -9.686111e+000 1.455449e+001 3.000000e+000
         vertex -9.459845e+000 1.445984e+001 1.851950e+000
         vertex -1.006066e+001 1.356066e+001 1.851950e+000
      endloop
   endfacet
   facet normal -8.182635e-001 1.709433e-001 -5.488380e-001
      outer loop
         vertex -1.025349e+001 1.250000e+001 1.809089e+000
         vertex -1.006066e+001 1.356066e+001 1.851950e+000
         vertex -9.459845e+000 1.331179e+001 8.786796e-001
      endloop
   endfacet
   facet normal -5.452560e-001 1.296669e-001 -8.281802e-001
      outer loop
         vertex -9.554486e+000 1.250000e+001 8.138883e-001
         vertex -9.459845e+000 1.331179e+001 8.786796e-001
         vertex -8.560660e+000 1.293934e+001 2.283614e-001
      endloop
   endfacet
   facet normal -1.652652e-001 1.104266e-001 -9.800476e-001
      outer loop
         vertex -7.500000e+000 1.250000e+001 0.000000e+000
         vertex -8.560660e+000 1.293934e+001 2.283614e-001
         vertex -8.311794e+000 1.331179e+001 2.283614e-001
      endloop
   endfacet
   facet normal -1.714224e-001 9.581129e-002 -9.805277e-001
      outer loop
         vertex -7.500000e+000 1.250000e+001 0.000000e+000
         vertex -8.517851e+000 1.250000e+001 1.779475e-001
         vertex -8.560660e+000 1.293934e+001 2.283614e-001
      endloop
   endfacet
   facet normal -1.296669e-001 5.452560e-001 -8.281802e-001
      outer loop
         vertex -7.939340e+000 1.356066e+001 2.283614e-001
         vertex -8.311794e+000 1.445984e+001 8.786796e-001
         vertex -7.500000e+000 1.455449e+001 8.138883e-001
      endloop
   endfacet
   facet normal -5.444979e-001 8.148986e-001 -1.986511e-001
      outer loop
         vertex -9.459845e+000 1.445984e+001 1.851950e+000
         vertex -8.690911e+000 1.525349e+001 3.000000e+000
         vertex -8.560660e+000 1.506066e+001 1.851950e+000
      endloop
   endfacet
   facet normal -8.102701e-001 1.398866e-001 -5.691169e-001
      outer loop
         vertex -9.554486e+000 1.250000e+001 8.138883e-001
         vertex -1.025349e+001 1.250000e+001 1.809089e+000
         vertex -9.459845e+000 1.331179e+001 8.786796e-001
      endloop
   endfacet
   facet normal 0.000000e+000 0.000000e+000 0.000000e+000
      outer loop
         vertex -7.500000e+000 1.250000e+001 0.000000e+000
         vertex -8.560660e+000 1.293934e+001 2.283614e-001
         vertex -7.500000e+000 1.250000e+001 0.000000e+000
      endloop
   endfacet
   facet normal 0.000000e+000 -0.000000e+000 0.000000e+000
      outer loop
         vertex -8.311794e+000 1.331179e+001 2.283614e-001
         vertex -7.500000e+000 1.250000e+001 0.000000e+000
         vertex -7.500000e+000 1.250000e+001 0.000000e+000
      endloop
   endfacet
   facet normal -1.830751e-001 9.626922e-001 -1.992668e-001
      outer loop
         vertex -8.560660e+000 1.506066e+001 1.851950e+000
         vertex -7.500000e+000 1.550000e+001 3.000000e+000
         vertex -7.500000e+000 1.525349e+001 1.809089e+000
      endloop
   endfacet
   facet normal -1.709433e-001 8.182635e-001 -5.488380e-001
      outer loop
         vertex -7.500000e+000 1.525349e+001 1.809089e+000
         vertex -8.311794e+000 1.445984e+001 8.786796e-001
         vertex -8.560660e+000 1.506066e+001 1.851950e+000
      endloop
   endfacet
   facet normal -9.600193e-001 1.830937e-001 -2.117536e-001
      outer loop
         vertex -1.006066e+001 1.356066e+001 1.851950e+000
         vertex -1.025349e+001 1.250000e+001 1.809089e+000
         vertex -1.032205e+001 1.351785e+001 3.000000e+000
      endloop
   endfacet
   facet normal -5.656044e-001 8.052691e-001 -1.778577e-001
      outer loop
         vertex -8.690911e+000 1.525349e+001 3.000000e+000
         vertex -9.459845e+000 1.445984e+001 1.851950e+000
         vertex -9.686111e+000 1.455449e+001 3.000000e+000
      endloop
   endfacet
   facet normal -4.680671e-002 5.223377e-001 -8.514531e-001
      outer loop
         vertex -7.939340e+000 1.356066e+001 2.283614e-001
         vertex -7.500000e+000 1.455449e+001 8.138883e-001
         vertex -7.500000e+000 1.351785e+001 1.779475e-001
      endloop
   endfacet
   facet normal -9.581129e-002 1.714224e-001 -9.805277e-001
      outer loop
         vertex -7.939340e+000 1.356066e+001 2.283614e-001
         vertex -7.500000e+000 1.351785e+001 1.779475e-001
         vertex -7.500000e+000 1.250000e+001 0.000000e+000
      endloop
   endfacet
   facet normal -1.104266e-001 1.652652e-001 -9.800476e-001
      outer loop
         vertex -8.311794e+000 1.331179e+001 2.283614e-001
         vertex -7.939340e+000 1.356066e+001 2.283614e-001
         vertex -7.500000e+000 1.250000e+001 0.000000e+000
      endloop
   endfacet
   facet normal 6.954386e-001 4.646773e-001 -5.481243e-001
      outer loop
         vertex 9.000000e+000 1.400000e+001 8.786796e-001
         vertex 9.459845e+000 1.445984e+001 1.851950e+000
         vertex 1.006066e+001 1.356066e+001 1.851950e+000
      endloop
   endfacet
   facet normal 6.954385e-001 4.646774e-001 -5.481242e-001
      outer loop
         vertex 9.459845e+000 1.331179e+001 8.786796e-001
         vertex 9.000000e+000 1.400000e+001 8.786796e-001
         vertex 1.006066e+001 1.356066e+001 1.851950e+000
      endloop
   endfacet
   facet normal 4.646773e-001 6.954386e-001 -5.481242e-001
      outer loop
         vertex 8.311794e+000 1.445984e+001 8.786796e-001
         vertex 8.560660e+000 1.506066e+001 1.851950e+000
         vertex 9.459845e+000 1.445984e+001 1.851950e+000
      endloop
   endfacet
   facet normal 4.646774e-001 6.954385e-001 -5.481243e-001
      outer loop
         vertex 9.000000e+000 1.400000e+001 8.786796e-001
         vertex 8.311794e+000 1.445984e+001 8.786796e-001
         vertex 9.459845e+000 1.445984e+001 1.851950e+000
      endloop
   endfacet
   facet normal 4.681398e-001 3.128012e-001 -8.264385e-001
      outer loop
         vertex 8.311794e+000 1.331179e+001 2.283614e-001
         vertex 9.000000e+000 1.400000e+001 8.786796e-001
         vertex 9.459845e+000 1.331179e+001 8.786796e-001
      endloop
   endfacet
   facet normal 4.681398e-001 3.128008e-001 -8.264386e-001
      outer loop
         vertex 8.560660e+000 1.293934e+001 2.283614e-001
         vertex 8.311794e+000 1.331179e+001 2.283614e-001
         vertex 9.459845e+000 1.331179e+001 8.786796e-001
      endloop
   endfacet
   facet normal 3.128011e-001 4.681397e-001 -8.264386e-001
      outer loop
         vertex 7.939340e+000 1.356066e+001 2.283614e-001
         vertex 8.311794e+000 1.445984e+001 8.786796e-001
         vertex 9.000000e+000 1.400000e+001 8.786796e-001
      endloop
   endfacet
   facet normal 3.128009e-001 4.681400e-001 -8.264385e-001
      outer loop
         vertex 8.311794e+000 1.331179e+001 2.283614e-001
         vertex 7.939340e+000 1.356066e+001 2.283614e-001
         vertex 9.000000e+000 1.400000e+001 8.786796e-001
      endloop
   endfacet
   facet normal 1.687423e-001 9.652003e-001 -1.997860e-001
      outer loop
         vertex 8.517851e+000 1.532205e+001 3.000000e+000
         vertex 7.500000e+000 1.525349e+001 1.809089e+000
         vertex 7.500000e+000 1.550000e+001 3.000000e+000
      endloop
   endfacet
   facet normal 4.680671e-002 5.223377e-001 -8.514531e-001
      outer loop
         vertex 7.939340e+000 1.356066e+001 2.283614e-001
         vertex 7.500000e+000 1.351785e+001 1.779475e-001
         vertex 7.500000e+000 1.455449e+001 8.138883e-001
      endloop
   endfacet
   facet normal 0.000000e+000 0.000000e+000 0.000000e+000
      outer loop
         vertex 7.500000e+000 1.351785e+001 1.779475e-001
         vertex 7.500000e+000 1.250000e+001 0.000000e+000
         vertex 7.500000e+000 1.250000e+001 0.000000e+000
      endloop
   endfacet
   facet normal 0.000000e+000 0.000000e+000 0.000000e+000
      outer loop
         vertex 8.517851e+000 1.250000e+001 1.779475e-001
         vertex 7.500000e+000 1.250000e+001 0.000000e+000
         vertex 7.500000e+000 1.250000e+001 0.000000e+000
      endloop
   endfacet
   facet normal 8.102701e-001 1.398866e-001 -5.691169e-001
      outer loop
         vertex 9.459845e+000 1.331179e+001 8.786796e-001
         vertex 1.025349e+001 1.250000e+001 1.809089e+000
         vertex 9.554486e+000 1.250000e+001 8.138883e-001
      endloop
   endfacet
   facet normal 9.624743e-001 1.992218e-001 -1.842659e-001
      outer loop
         vertex 1.006066e+001 1.356066e+001 1.851950e+000
         vertex 1.025349e+001 1.369091e+001 3.000000e+000
         vertex 1.050000e+001 1.250000e+001 3.000000e+000
      endloop
   endfacet
   facet normal 5.151206e-001 8.396876e-001 -1.719751e-001
      outer loop
         vertex 8.560660e+000 1.506066e+001 1.851950e+000
         vertex 8.517851e+000 1.532205e+001 3.000000e+000
         vertex 9.554486e+000 1.468611e+001 3.000000e+000
      endloop
   endfacet
   facet normal 5.437466e-001 8.137742e-001 -2.052099e-001
      outer loop
         vertex 9.554486e+000 1.468611e+001 3.000000e+000
         vertex 9.459845e+000 1.445984e+001 1.851950e+000
         vertex 8.560660e+000 1.506066e+001 1.851950e+000
      endloop
   endfacet
   facet normal 1.709433e-001 8.182635e-001 -5.488380e-001
      outer loop
         vertex 7.500000e+000 1.525349e+001 1.809089e+000
         vertex 8.560660e+000 1.506066e+001 1.851950e+000
         vertex 8.311794e+000 1.445984e+001 8.786796e-001
      endloop
   endfacet
   facet normal 1.296669e-001 5.452560e-001 -8.281802e-001
      outer loop
         vertex 7.500000e+000 1.455449e+001 8.138883e-001
         vertex 8.311794e+000 1.445984e+001 8.786796e-001
         vertex 7.939340e+000 1.356066e+001 2.283614e-001
      endloop
   endfacet
   facet normal 1.104266e-001 1.652652e-001 -9.800476e-001
      outer loop
         vertex 7.500000e+000 1.250000e+001 0.000000e+000
         vertex 7.939340e+000 1.356066e+001 2.283614e-001
         vertex 8.311794e+000 1.331179e+001 2.283614e-001
      endloop
   endfacet
   facet normal 9.581129e-002 1.714224e-001 -9.805277e-001
      outer loop
         vertex 7.500000e+000 1.250000e+001 0.000000e+000
         vertex 7.500000e+000 1.351785e+001 1.779475e-001
         vertex 7.939340e+000 1.356066e+001 2.283614e-001
      endloop
   endfacet
   facet normal 5.452560e-001 1.296669e-001 -8.281802e-001
      outer loop
         vertex 8.560660e+000 1.293934e+001 2.283614e-001
         vertex 9.459845e+000 1.331179e+001 8.786796e-001
         vertex 9.554486e+000 1.250000e+001 8.138883e-001
      endloop
   endfacet
   facet normal 8.148986e-001 5.444979e-001 -1.986511e-001
      outer loop
         vertex 9.459845e+000 1.445984e+001 1.851950e+000
         vertex 1.025349e+001 1.369091e+001 3.000000e+000
         vertex 1.006066e+001 1.356066e+001 1.851950e+000
      endloop
   endfacet
   facet normal 1.398866e-001 8.102701e-001 -5.691169e-001
      outer loop
         vertex 7.500000e+000 1.455449e+001 8.138883e-001
         vertex 7.500000e+000 1.525349e+001 1.809089e+000
         vertex 8.311794e+000 1.445984e+001 8.786796e-001
      endloop
   endfacet
   facet normal 0.000000e+000 0.000000e+000 0.000000e+000
      outer loop
         vertex 7.500000e+000 1.250000e+001 0.000000e+000
         vertex 7.939340e+000 1.356066e+001 2.283614e-001
         vertex 7.500000e+000 1.250000e+001 0.000000e+000
      endloop
   endfacet
   facet normal 0.000000e+000 0.000000e+000 0.000000e+000
      outer loop
         vertex 8.311794e+000 1.331179e+001 2.283614e-001
         vertex 7.500000e+000 1.250000e+001 0.000000e+000
         vertex 7.500000e+000 1.250000e+001 0.000000e+000
      endloop
   endfacet
   facet normal 9.626922e-001 1.830751e-001 -1.992668e-001
      outer loop
         vertex 1.006066e+001 1.356066e+001 1.851950e+000
         vertex 1.050000e+001 1.250000e+001 3.000000e+000
         vertex 1.025349e+001 1.250000e+001 1.809089e+000
      endloop
   endfacet
   facet normal 8.182635e-001 1.709433e-001 -5.488380e-001
      outer loop
         vertex 1.025349e+001 1.250000e+001 1.809089e+000
         vertex 9.459845e+000 1.331179e+001 8.786796e-001
         vertex 1.006066e+001 1.356066e+001 1.851950e+000
      endloop
   endfacet
   facet normal 1.830937e-001 9.600193e-001 -2.117536e-001
      outer loop
         vertex 8.560660e+000 1.506066e+001 1.851950e+000
         vertex 7.500000e+000 1.525349e+001 1.809089e+000
         vertex 8.517851e+000 1.532205e+001 3.000000e+000
      endloop
   endfacet
   facet normal 8.052691e-001 5.656044e-001 -1.778577e-001
      outer loop
         vertex 1.025349e+001 1.369091e+001 3.000000e+000
         vertex 9.459845e+000 1.445984e+001 1.851950e+000
         vertex 9.554486e+000 1.468611e+001 3.000000e+000
      endloop
   endfacet
   facet normal 5.223377e-001 4.680671e-002 -8.514531e-001
      outer loop
         vertex 8.560660e+000 1.293934e+001 2.283614e-001
         vertex 9.554486e+000 1.250000e+001 8.138883e-001
         vertex 8.517851e+000 1.250000e+001 1.779475e-001
      endloop
   endfacet
   facet normal 1.714224e-001 9.581129e-002 -9.805277e-001
      outer loop
         vertex 8.560660e+000 1.293934e+001 2.283614e-001
         vertex 8.517851e+000 1.250000e+001 1.779475e-001
         vertex 7.500000e+000 1.250000e+001 0.000000e+000
      endloop
   endfacet
   facet normal 1.652652e-001 1.104266e-001 -9.800476e-001
      outer loop
         vertex 8.311794e+000 1.331179e+001 2.283614e-001
         vertex 8.560660e+000 1.293934e+001 2.283614e-001
         vertex 7.500000e+000 1.250000e+001 0.000000e+000
      endloop
   endfacet
   facet normal -0.000000e+000 -9.792424e-001 -2.026926e-001
      outer loop
         vertex -7.500000e+000 -1.525349e+001 1.809089e+000
         vertex 7.500000e+000 -1.525349e+001 1.809089e+000
         vertex 7.500000e+000 -1.550000e+001 3.000000e+000
      endloop
   endfacet
   facet normal -0.000000e+000 -5.229109e-001 -8.523874e-001
      outer loop
         vertex -7.500000e+000 -1.351785e+001 1.779475e-001
         vertex 7.500000e+000 -1.351785e+001 1.779475e-001
         vertex 7.500000e+000 -1.455449e+001 8.138883e-001
      endloop
   endfacet
   facet normal 0.000000e+000 -1.722147e-001 -9.850594e-001
      outer loop
         vertex 7.500000e+000 -1.351785e+001 1.779475e-001
         vertex -7.500000e+000 -1.250000e+001 0.000000e+000
         vertex 7.500000e+000 -1.250000e+001 0.000000e+000
      endloop
   endfacet
   facet normal 0.000000e+000 -8.183162e-001 -5.747683e-001
      outer loop
         vertex 7.500000e+000 -1.525349e+001 1.809089e+000
         vertex -7.500000e+000 -1.525349e+001 1.809089e+000
         vertex -7.500000e+000 -1.455449e+001 8.138883e-001
      endloop
   endfacet
   facet normal -0.000000e+000 -9.792424e-001 -2.026926e-001
      outer loop
         vertex -7.500000e+000 -1.525349e+001 1.809089e+000
         vertex 7.500000e+000 -1.550000e+001 3.000000e+000
         vertex -7.500000e+000 -1.550000e+001 3.000000e+000
      endloop
   endfacet
   facet normal 0.000000e+000 -1.722147e-001 -9.850594e-001
      outer loop
         vertex -7.500000e+000 -1.351785e+001 1.779475e-001
         vertex -7.500000e+000 -1.250000e+001 0.000000e+000
         vertex 7.500000e+000 -1.351785e+001 1.779475e-001
      endloop
   endfacet
   facet normal -0.000000e+000 -8.183162e-001 -5.747683e-001
      outer loop
         vertex -7.500000e+000 -1.455449e+001 8.138883e-001
         vertex 7.500000e+000 -1.455449e+001 8.138883e-001
         vertex 7.500000e+000 -1.525349e+001 1.809089e+000
      endloop
   endfacet
   facet normal 0.000000e+000 -5.229109e-001 -8.523874e-001
      outer loop
         vertex -7.500000e+000 -1.455449e+001 8.138883e-001
         vertex -7.500000e+000 -1.351785e+001 1.779475e-001
         vertex 7.500000e+000 -1.455449e+001 8.138883e-001
      endloop
   endfacet
   facet normal 9.792424e-001 0.000000e+000 -2.026926e-001
      outer loop
         vertex 1.025349e+001 -1.250000e+001 1.809089e+000
         vertex 1.025349e+001 1.250000e+001 1.809089e+000
         vertex 1.050000e+001 1.250000e+001 3.000000e+000
      endloop
   endfacet
   facet normal 5.229109e-001 0.000000e+000 -8.523874e-001
      outer loop
         vertex 8.517851e+000 -1.250000e+001 1.779475e-001
         vertex 8.517851e+000 1.250000e+001 1.779475e-001
         vertex 9.554486e+000 1.250000e+001 8.138883e-001
      endloop
   endfacet
   facet normal 1.722147e-001 0.000000e+000 -9.850594e-001
      outer loop
         vertex 8.517851e+000 1.250000e+001 1.779475e-001
         vertex 7.500000e+000 -1.250000e+001 0.000000e+000
         vertex 7.500000e+000 1.250000e+001 0.000000e+000
      endloop
   endfacet
   facet normal 8.183162e-001 0.000000e+000 -5.747683e-001
      outer loop
         vertex 1.025349e+001 1.250000e+001 1.809089e+000
         vertex 1.025349e+001 -1.250000e+001 1.809089e+000
         vertex 9.554486e+000 -1.250000e+001 8.138883e-001
      endloop
   endfacet
   facet normal 9.792424e-001 0.000000e+000 -2.026926e-001
      outer loop
         vertex 1.025349e+001 -1.250000e+001 1.809089e+000
         vertex 1.050000e+001 1.250000e+001 3.000000e+000
         vertex 1.050000e+001 -1.250000e+001 3.000000e+000
      endloop
   endfacet
   facet normal 1.722147e-001 0.000000e+000 -9.850594e-001
      outer loop
         vertex 8.517851e+000 -1.250000e+001 1.779475e-001
         vertex 7.500000e+000 -1.250000e+001 0.000000e+000
         vertex 8.517851e+000 1.250000e+001 1.779475e-001
      endloop
   endfacet
   facet normal 8.183162e-001 0.000000e+000 -5.747683e-001
      outer loop
         vertex 9.554486e+000 -1.250000e+001 8.138883e-001
         vertex 9.554486e+000 1.250000e+001 8.138883e-001
         vertex 1.025349e+001 1.250000e+001 1.809089e+000
      endloop
   endfacet
   facet normal 5.229109e-001 0.000000e+000 -8.523874e-001
      outer loop
         vertex 9.554486e+000 -1.250000e+001 8.138883e-001
         vertex 8.517851e+000 -1.250000e+001 1.779475e-001
         vertex 9.554486e+000 1.250000e+001 8.138883e-001
      endloop
   endfacet
endsolid
