solid 
   facet normal -3.269065e-001 9.450567e-001 0.000000e+000
      outer loop
         vertex 5.135366e+001 -7.685880e+001 1.700000e+001
         vertex 4.950000e+001 -7.750000e+001 0.000000e+000
         vertex 4.950000e+001 -7.750000e+001 1.700000e+001
      endloop
   endfacet
   facet normal -9.238208e-001 3.826571e-001 1.134361e-002
      outer loop
         vertex 5.241495e+001 -7.520929e+001 1.700000e+001
         vertex 5.250000e+001 -7.450000e+001 0.000000e+000
         vertex 5.162133e+001 -7.662131e+001 0.000000e+000
      endloop
   endfacet
   facet normal -9.928871e-001 1.190593e-001 0.000000e+000
      outer loop
         vertex 5.250000e+001 -7.450000e+001 0.000000e+000
         vertex 5.241495e+001 -7.520929e+001 1.700000e+001
         vertex 5.250000e+001 -7.450000e+001 1.700000e+001
      endloop
   endfacet
   facet normal -8.409592e-001 5.410687e-001 -5.682286e-003
      outer loop
         vertex 5.135366e+001 -7.685880e+001 1.700000e+001
         vertex 5.241495e+001 -7.520929e+001 1.700000e+001
         vertex 5.162133e+001 -7.662131e+001 0.000000e+000
      endloop
   endfacet
   facet normal -3.826777e-001 9.238563e-001 6.880873e-003
      outer loop
         vertex 5.135366e+001 -7.685880e+001 1.700000e+001
         vertex 5.162133e+001 -7.662131e+001 0.000000e+000
         vertex 4.950000e+001 -7.750000e+001 0.000000e+000
      endloop
   endfacet
   facet normal 0.000000e+000 1.000000e+000 -0.000000e+000
      outer loop
         vertex 7.250000e+001 9.750000e+001 2.000000e+001
         vertex 7.250000e+001 9.750000e+001 0.000000e+000
         vertex -7.250000e+001 9.750000e+001 2.000000e+001
      endloop
   endfacet
   facet normal 0.000000e+000 1.000000e+000 0.000000e+000
      outer loop
         vertex 7.250000e+001 9.750000e+001 0.000000e+000
         vertex -7.250000e+001 9.750000e+001 0.000000e+000
         vertex -7.250000e+001 9.750000e+001 2.000000e+001
      endloop
   endfacet
   facet normal 1.000000e+000 0.000000e+000 0.000000e+000
      outer loop
         vertex -5.250000e+001 7.450000e+001 0.000000e+000
         vertex -5.250000e+001 7.450000e+001 1.700000e+001
         vertex -5.250000e+001 -7.450000e+001 0.000000e+000
      endloop
   endfacet
   facet normal 1.000000e+000 0.000000e+000 0.000000e+000
      outer loop
         vertex -5.250000e+001 -7.450000e+001 0.000000e+000
         vertex -5.250000e+001 7.450000e+001 1.700000e+001
         vertex -5.250000e+001 -7.450000e+001 1.700000e+001
      endloop
   endfacet
   facet normal 0.000000e+000 1.000000e+000 0.000000e+000
      outer loop
         vertex -4.950000e+001 -7.750000e+001 0.000000e+000
         vertex -4.950000e+001 -7.750000e+001 1.700000e+001
         vertex 4.950000e+001 -7.750000e+001 0.000000e+000
      endloop
   endfacet
   facet normal 0.000000e+000 1.000000e+000 0.000000e+000
      outer loop
         vertex -4.950000e+001 -7.750000e+001 1.700000e+001
         vertex 4.950000e+001 -7.750000e+001 1.700000e+001
         vertex 4.950000e+001 -7.750000e+001 0.000000e+000
      endloop
   endfacet
   facet normal 3.269065e-001 -9.450567e-001 0.000000e+000
      outer loop
         vertex -5.135366e+001 7.685880e+001 1.700000e+001
         vertex -4.950000e+001 7.750000e+001 0.000000e+000
         vertex -4.950000e+001 7.750000e+001 1.700000e+001
      endloop
   endfacet
   facet normal 9.238208e-001 -3.826571e-001 1.134361e-002
      outer loop
         vertex -5.241495e+001 7.520929e+001 1.700000e+001
         vertex -5.250000e+001 7.450000e+001 0.000000e+000
         vertex -5.162133e+001 7.662131e+001 0.000000e+000
      endloop
   endfacet
   facet normal 9.928871e-001 -1.190593e-001 0.000000e+000
      outer loop
         vertex -5.250000e+001 7.450000e+001 0.000000e+000
         vertex -5.241495e+001 7.520929e+001 1.700000e+001
         vertex -5.250000e+001 7.450000e+001 1.700000e+001
      endloop
   endfacet
   facet normal 8.409592e-001 -5.410687e-001 -5.682286e-003
      outer loop
         vertex -5.135366e+001 7.685880e+001 1.700000e+001
         vertex -5.241495e+001 7.520929e+001 1.700000e+001
         vertex -5.162133e+001 7.662131e+001 0.000000e+000
      endloop
   endfacet
   facet normal 3.826777e-001 -9.238563e-001 6.880873e-003
      outer loop
         vertex -5.135366e+001 7.685880e+001 1.700000e+001
         vertex -5.162133e+001 7.662131e+001 0.000000e+000
         vertex -4.950000e+001 7.750000e+001 0.000000e+000
      endloop
   endfacet
   facet normal -1.000000e+000 0.000000e+000 0.000000e+000
      outer loop
         vertex 5.250000e+001 -7.450000e+001 0.000000e+000
         vertex 5.250000e+001 -7.450000e+001 1.700000e+001
         vertex 5.250000e+001 7.450000e+001 0.000000e+000
      endloop
   endfacet
   facet normal -1.000000e+000 0.000000e+000 0.000000e+000
      outer loop
         vertex 5.250000e+001 7.450000e+001 0.000000e+000
         vertex 5.250000e+001 -7.450000e+001 1.700000e+001
         vertex 5.250000e+001 7.450000e+001 1.700000e+001
      endloop
   endfacet
   facet normal -1.000000e+000 0.000000e+000 0.000000e+000
      outer loop
         vertex -7.250000e+001 9.750000e+001 2.000000e+001
         vertex -7.250000e+001 9.750000e+001 0.000000e+000
         vertex -7.250000e+001 -9.750000e+001 2.000000e+001
      endloop
   endfacet
   facet normal -1.000000e+000 0.000000e+000 0.000000e+000
      outer loop
         vertex -7.250000e+001 9.750000e+001 0.000000e+000
         vertex -7.250000e+001 -9.750000e+001 0.000000e+000
         vertex -7.250000e+001 -9.750000e+001 2.000000e+001
      endloop
   endfacet
   facet normal 0.000000e+000 -1.000000e+000 -0.000000e+000
      outer loop
         vertex 4.950000e+001 7.750000e+001 0.000000e+000
         vertex 4.950000e+001 7.750000e+001 1.700000e+001
         vertex -4.950000e+001 7.750000e+001 0.000000e+000
      endloop
   endfacet
   facet normal -0.000000e+000 -1.000000e+000 0.000000e+000
      outer loop
         vertex -4.950000e+001 7.750000e+001 0.000000e+000
         vertex 4.950000e+001 7.750000e+001 1.700000e+001
         vertex -4.950000e+001 7.750000e+001 1.700000e+001
      endloop
   endfacet
   facet normal 0.000000e+000 -1.000000e+000 0.000000e+000
      outer loop
         vertex -7.250000e+001 -9.750000e+001 2.000000e+001
         vertex -7.250000e+001 -9.750000e+001 0.000000e+000
         vertex 7.250000e+001 -9.750000e+001 2.000000e+001
      endloop
   endfacet
   facet normal 0.000000e+000 -1.000000e+000 0.000000e+000
      outer loop
         vertex -7.250000e+001 -9.750000e+001 0.000000e+000
         vertex 7.250000e+001 -9.750000e+001 0.000000e+000
         vertex 7.250000e+001 -9.750000e+001 2.000000e+001
      endloop
   endfacet
   facet normal 0.000000e+000 0.000000e+000 1.000000e+000
      outer loop
         vertex -7.250000e+001 -9.750000e+001 2.000000e+001
         vertex -5.550000e+001 -7.450000e+001 2.000000e+001
         vertex -7.250000e+001 9.750000e+001 2.000000e+001
      endloop
   endfacet
   facet normal 0.000000e+000 -0.000000e+000 1.000000e+000
      outer loop
         vertex -7.250000e+001 9.750000e+001 2.000000e+001
         vertex -4.950000e+001 8.050000e+001 2.000000e+001
         vertex 7.250000e+001 9.750000e+001 2.000000e+001
      endloop
   endfacet
   facet normal 0.000000e+000 -0.000000e+000 1.000000e+000
      outer loop
         vertex -4.950000e+001 8.050000e+001 2.000000e+001
         vertex 4.950000e+001 8.050000e+001 2.000000e+001
         vertex 7.250000e+001 9.750000e+001 2.000000e+001
      endloop
   endfacet
   facet normal -0.000000e+000 0.000000e+000 1.000000e+000
      outer loop
         vertex 7.250000e+001 9.750000e+001 2.000000e+001
         vertex 5.550000e+001 7.450000e+001 2.000000e+001
         vertex 7.250000e+001 -9.750000e+001 2.000000e+001
      endloop
   endfacet
   facet normal -0.000000e+000 0.000000e+000 1.000000e+000
      outer loop
         vertex 5.550000e+001 7.450000e+001 2.000000e+001
         vertex 5.550000e+001 -7.450000e+001 2.000000e+001
         vertex 7.250000e+001 -9.750000e+001 2.000000e+001
      endloop
   endfacet
   facet normal 0.000000e+000 0.000000e+000 1.000000e+000
      outer loop
         vertex 7.250000e+001 -9.750000e+001 2.000000e+001
         vertex 4.950000e+001 -8.050000e+001 2.000000e+001
         vertex -7.250000e+001 -9.750000e+001 2.000000e+001
      endloop
   endfacet
   facet normal -0.000000e+000 0.000000e+000 1.000000e+000
      outer loop
         vertex 4.950000e+001 -8.050000e+001 2.000000e+001
         vertex -4.950000e+001 -8.050000e+001 2.000000e+001
         vertex -7.250000e+001 -9.750000e+001 2.000000e+001
      endloop
   endfacet
   facet normal 0.000000e+000 0.000000e+000 1.000000e+000
      outer loop
         vertex -7.250000e+001 -9.750000e+001 2.000000e+001
         vertex -5.091862e+001 -8.032988e+001 2.000000e+001
         vertex -5.421761e+001 -7.820731e+001 2.000000e+001
      endloop
   endfacet
   facet normal 0.000000e+000 0.000000e+000 1.000000e+000
      outer loop
         vertex -5.091862e+001 -8.032988e+001 2.000000e+001
         vertex -7.250000e+001 -9.750000e+001 2.000000e+001
         vertex -4.950000e+001 -8.050000e+001 2.000000e+001
      endloop
   endfacet
   facet normal 0.000000e+000 0.000000e+000 1.000000e+000
      outer loop
         vertex 4.950000e+001 -8.050000e+001 2.000000e+001
         vertex 7.250000e+001 -9.750000e+001 2.000000e+001
         vertex 5.320731e+001 -7.921761e+001 2.000000e+001
      endloop
   endfacet
   facet normal 0.000000e+000 0.000000e+000 1.000000e+000
      outer loop
         vertex 7.250000e+001 -9.750000e+001 2.000000e+001
         vertex 5.532988e+001 -7.591862e+001 2.000000e+001
         vertex 5.320731e+001 -7.921761e+001 2.000000e+001
      endloop
   endfacet
   facet normal 0.000000e+000 0.000000e+000 1.000000e+000
      outer loop
         vertex 5.532988e+001 -7.591862e+001 2.000000e+001
         vertex 7.250000e+001 -9.750000e+001 2.000000e+001
         vertex 5.550000e+001 -7.450000e+001 2.000000e+001
      endloop
   endfacet
   facet normal 0.000000e+000 0.000000e+000 1.000000e+000
      outer loop
         vertex 5.550000e+001 7.450000e+001 2.000000e+001
         vertex 7.250000e+001 9.750000e+001 2.000000e+001
         vertex 5.421761e+001 7.820731e+001 2.000000e+001
      endloop
   endfacet
   facet normal 0.000000e+000 0.000000e+000 1.000000e+000
      outer loop
         vertex 5.421761e+001 7.820731e+001 2.000000e+001
         vertex 7.250000e+001 9.750000e+001 2.000000e+001
         vertex 5.091862e+001 8.032988e+001 2.000000e+001
      endloop
   endfacet
   facet normal -0.000000e+000 0.000000e+000 1.000000e+000
      outer loop
         vertex 7.250000e+001 9.750000e+001 2.000000e+001
         vertex 4.950000e+001 8.050000e+001 2.000000e+001
         vertex 5.091862e+001 8.032988e+001 2.000000e+001
      endloop
   endfacet
   facet normal 0.000000e+000 0.000000e+000 1.000000e+000
      outer loop
         vertex -4.950000e+001 8.050000e+001 2.000000e+001
         vertex -7.250000e+001 9.750000e+001 2.000000e+001
         vertex -5.320731e+001 7.921761e+001 2.000000e+001
      endloop
   endfacet
   facet normal 0.000000e+000 0.000000e+000 1.000000e+000
      outer loop
         vertex -5.320731e+001 7.921761e+001 2.000000e+001
         vertex -7.250000e+001 9.750000e+001 2.000000e+001
         vertex -5.532988e+001 7.591862e+001 2.000000e+001
      endloop
   endfacet
   facet normal 0.000000e+000 0.000000e+000 1.000000e+000
      outer loop
         vertex -5.532988e+001 7.591862e+001 2.000000e+001
         vertex -7.250000e+001 9.750000e+001 2.000000e+001
         vertex -5.550000e+001 7.450000e+001 2.000000e+001
      endloop
   endfacet
   facet normal 0.000000e+000 -0.000000e+000 1.000000e+000
      outer loop
         vertex -7.250000e+001 9.750000e+001 2.000000e+001
         vertex -5.550000e+001 -7.450000e+001 2.000000e+001
         vertex -5.550000e+001 7.450000e+001 2.000000e+001
      endloop
   endfacet
   facet normal 0.000000e+000 0.000000e+000 1.000000e+000
      outer loop
         vertex -5.550000e+001 -7.450000e+001 2.000000e+001
         vertex -7.250000e+001 -9.750000e+001 2.000000e+001
         vertex -5.421761e+001 -7.820731e+001 2.000000e+001
      endloop
   endfacet
   facet normal 0.000000e+000 0.000000e+000 -1.000000e+000
      outer loop
         vertex 7.250000e+001 9.750000e+001 0.000000e+000
         vertex 4.950000e+001 7.750000e+001 0.000000e+000
         vertex -7.250000e+001 9.750000e+001 0.000000e+000
      endloop
   endfacet
   facet normal -0.000000e+000 0.000000e+000 -1.000000e+000
      outer loop
         vertex -7.250000e+001 9.750000e+001 0.000000e+000
         vertex -5.250000e+001 7.450000e+001 0.000000e+000
         vertex -7.250000e+001 -9.750000e+001 0.000000e+000
      endloop
   endfacet
   facet normal -0.000000e+000 0.000000e+000 -1.000000e+000
      outer loop
         vertex -5.250000e+001 7.450000e+001 0.000000e+000
         vertex -5.250000e+001 -7.450000e+001 0.000000e+000
         vertex -7.250000e+001 -9.750000e+001 0.000000e+000
      endloop
   endfacet
   facet normal 0.000000e+000 -0.000000e+000 -1.000000e+000
      outer loop
         vertex -7.250000e+001 -9.750000e+001 0.000000e+000
         vertex -4.950000e+001 -7.750000e+001 0.000000e+000
         vertex 7.250000e+001 -9.750000e+001 0.000000e+000
      endloop
   endfacet
   facet normal -0.000000e+000 -0.000000e+000 -1.000000e+000
      outer loop
         vertex -4.950000e+001 -7.750000e+001 0.000000e+000
         vertex 4.950000e+001 -7.750000e+001 0.000000e+000
         vertex 7.250000e+001 -9.750000e+001 0.000000e+000
      endloop
   endfacet
   facet normal 0.000000e+000 0.000000e+000 -1.000000e+000
      outer loop
         vertex 7.250000e+001 -9.750000e+001 0.000000e+000
         vertex 5.250000e+001 -7.450000e+001 0.000000e+000
         vertex 7.250000e+001 9.750000e+001 0.000000e+000
      endloop
   endfacet
   facet normal 0.000000e+000 0.000000e+000 -1.000000e+000
      outer loop
         vertex 5.250000e+001 -7.450000e+001 0.000000e+000
         vertex 5.250000e+001 7.450000e+001 0.000000e+000
         vertex 7.250000e+001 9.750000e+001 0.000000e+000
      endloop
   endfacet
   facet normal 0.000000e+000 0.000000e+000 -1.000000e+000
      outer loop
         vertex 7.250000e+001 9.750000e+001 0.000000e+000
         vertex 5.250000e+001 7.450000e+001 0.000000e+000
         vertex 5.162131e+001 7.662133e+001 0.000000e+000
      endloop
   endfacet
   facet normal 0.000000e+000 0.000000e+000 -1.000000e+000
      outer loop
         vertex 5.250000e+001 -7.450000e+001 0.000000e+000
         vertex 7.250000e+001 -9.750000e+001 0.000000e+000
         vertex 5.162133e+001 -7.662131e+001 0.000000e+000
      endloop
   endfacet
   facet normal 0.000000e+000 0.000000e+000 -1.000000e+000
      outer loop
         vertex 7.250000e+001 -9.750000e+001 0.000000e+000
         vertex 4.950000e+001 -7.750000e+001 0.000000e+000
         vertex 5.162133e+001 -7.662131e+001 0.000000e+000
      endloop
   endfacet
   facet normal 0.000000e+000 0.000000e+000 -1.000000e+000
      outer loop
         vertex -4.950000e+001 -7.750000e+001 0.000000e+000
         vertex -7.250000e+001 -9.750000e+001 0.000000e+000
         vertex -5.162131e+001 -7.662133e+001 0.000000e+000
      endloop
   endfacet
   facet normal 0.000000e+000 0.000000e+000 -1.000000e+000
      outer loop
         vertex -5.162131e+001 -7.662133e+001 0.000000e+000
         vertex -7.250000e+001 -9.750000e+001 0.000000e+000
         vertex -5.250000e+001 -7.450000e+001 0.000000e+000
      endloop
   endfacet
   facet normal 0.000000e+000 0.000000e+000 -1.000000e+000
      outer loop
         vertex -5.250000e+001 7.450000e+001 0.000000e+000
         vertex -7.250000e+001 9.750000e+001 0.000000e+000
         vertex -5.162133e+001 7.662131e+001 0.000000e+000
      endloop
   endfacet
   facet normal 0.000000e+000 0.000000e+000 -1.000000e+000
      outer loop
         vertex -5.162133e+001 7.662131e+001 0.000000e+000
         vertex -7.250000e+001 9.750000e+001 0.000000e+000
         vertex -4.950000e+001 7.750000e+001 0.000000e+000
      endloop
   endfacet
   facet normal 0.000000e+000 0.000000e+000 -1.000000e+000
      outer loop
         vertex -7.250000e+001 9.750000e+001 0.000000e+000
         vertex 4.950000e+001 7.750000e+001 0.000000e+000
         vertex -4.950000e+001 7.750000e+001 0.000000e+000
      endloop
   endfacet
   facet normal 0.000000e+000 0.000000e+000 -1.000000e+000
      outer loop
         vertex 4.950000e+001 7.750000e+001 0.000000e+000
         vertex 7.250000e+001 9.750000e+001 0.000000e+000
         vertex 5.162131e+001 7.662133e+001 0.000000e+000
      endloop
   endfacet
   facet normal -9.450571e-001 -3.269054e-001 0.000000e+000
      outer loop
         vertex 5.185880e+001 7.635366e+001 1.700000e+001
         vertex 5.250000e+001 7.450000e+001 0.000000e+000
         vertex 5.250000e+001 7.450000e+001 1.700000e+001
      endloop
   endfacet
   facet normal -3.826565e-001 -9.238210e-001 1.134350e-002
      outer loop
         vertex 5.020929e+001 7.741495e+001 1.700000e+001
         vertex 4.950000e+001 7.750000e+001 0.000000e+000
         vertex 5.162131e+001 7.662133e+001 0.000000e+000
      endloop
   endfacet
   facet normal -1.190599e-001 -9.928871e-001 0.000000e+000
      outer loop
         vertex 4.950000e+001 7.750000e+001 0.000000e+000
         vertex 5.020929e+001 7.741495e+001 1.700000e+001
         vertex 4.950000e+001 7.750000e+001 1.700000e+001
      endloop
   endfacet
   facet normal -5.410683e-001 -8.409595e-001 -5.682485e-003
      outer loop
         vertex 5.185880e+001 7.635366e+001 1.700000e+001
         vertex 5.020929e+001 7.741495e+001 1.700000e+001
         vertex 5.162131e+001 7.662133e+001 0.000000e+000
      endloop
   endfacet
   facet normal -9.238569e-001 -3.826762e-001 6.880818e-003
      outer loop
         vertex 5.185880e+001 7.635366e+001 1.700000e+001
         vertex 5.162131e+001 7.662133e+001 0.000000e+000
         vertex 5.250000e+001 7.450000e+001 0.000000e+000
      endloop
   endfacet
   facet normal 9.450571e-001 3.269054e-001 -0.000000e+000
      outer loop
         vertex -5.185880e+001 -7.635366e+001 1.700000e+001
         vertex -5.250000e+001 -7.450000e+001 0.000000e+000
         vertex -5.250000e+001 -7.450000e+001 1.700000e+001
      endloop
   endfacet
   facet normal 3.826565e-001 9.238210e-001 1.134350e-002
      outer loop
         vertex -5.020929e+001 -7.741495e+001 1.700000e+001
         vertex -4.950000e+001 -7.750000e+001 0.000000e+000
         vertex -5.162131e+001 -7.662133e+001 0.000000e+000
      endloop
   endfacet
   facet normal 1.190599e-001 9.928871e-001 0.000000e+000
      outer loop
         vertex -4.950000e+001 -7.750000e+001 0.000000e+000
         vertex -5.020929e+001 -7.741495e+001 1.700000e+001
         vertex -4.950000e+001 -7.750000e+001 1.700000e+001
      endloop
   endfacet
   facet normal 5.410683e-001 8.409595e-001 -5.682485e-003
      outer loop
         vertex -5.185880e+001 -7.635366e+001 1.700000e+001
         vertex -5.020929e+001 -7.741495e+001 1.700000e+001
         vertex -5.162131e+001 -7.662133e+001 0.000000e+000
      endloop
   endfacet
   facet normal 9.238569e-001 3.826762e-001 6.880818e-003
      outer loop
         vertex -5.185880e+001 -7.635366e+001 1.700000e+001
         vertex -5.162131e+001 -7.662133e+001 0.000000e+000
         vertex -5.250000e+001 -7.450000e+001 0.000000e+000
      endloop
   endfacet
   facet normal 1.000000e+000 0.000000e+000 0.000000e+000
      outer loop
         vertex 7.250000e+001 -9.750000e+001 2.000000e+001
         vertex 7.250000e+001 -9.750000e+001 0.000000e+000
         vertex 7.250000e+001 9.750000e+001 2.000000e+001
      endloop
   endfacet
   facet normal 1.000000e+000 0.000000e+000 0.000000e+000
      outer loop
         vertex 7.250000e+001 9.750000e+001 2.000000e+001
         vertex 7.250000e+001 -9.750000e+001 0.000000e+000
         vertex 7.250000e+001 9.750000e+001 0.000000e+000
      endloop
   endfacet
   facet normal 3.826878e-001 0.000000e+000 9.238777e-001
      outer loop
         vertex -5.337866e+001 7.450000e+001 1.912130e+001
         vertex -5.550000e+001 7.450000e+001 2.000000e+001
         vertex -5.550000e+001 -7.450000e+001 2.000000e+001
      endloop
   endfacet
   facet normal 9.238815e-001 0.000000e+000 3.826787e-001
      outer loop
         vertex -5.337866e+001 -7.450000e+001 1.912130e+001
         vertex -5.250000e+001 -7.450000e+001 1.700000e+001
         vertex -5.337866e+001 7.450000e+001 1.912130e+001
      endloop
   endfacet
   facet normal 9.238815e-001 0.000000e+000 3.826787e-001
      outer loop
         vertex -5.250000e+001 7.450000e+001 1.700000e+001
         vertex -5.337866e+001 7.450000e+001 1.912130e+001
         vertex -5.250000e+001 -7.450000e+001 1.700000e+001
      endloop
   endfacet
   facet normal 3.826878e-001 -0.000000e+000 9.238777e-001
      outer loop
         vertex -5.550000e+001 -7.450000e+001 2.000000e+001
         vertex -5.337866e+001 -7.450000e+001 1.912130e+001
         vertex -5.337866e+001 7.450000e+001 1.912130e+001
      endloop
   endfacet
   facet normal -3.826878e-001 0.000000e+000 9.238777e-001
      outer loop
         vertex 5.337866e+001 -7.450000e+001 1.912130e+001
         vertex 5.550000e+001 -7.450000e+001 2.000000e+001
         vertex 5.550000e+001 7.450000e+001 2.000000e+001
      endloop
   endfacet
   facet normal -9.238815e-001 0.000000e+000 3.826787e-001
      outer loop
         vertex 5.337866e+001 7.450000e+001 1.912130e+001
         vertex 5.250000e+001 7.450000e+001 1.700000e+001
         vertex 5.337866e+001 -7.450000e+001 1.912130e+001
      endloop
   endfacet
   facet normal -9.238815e-001 0.000000e+000 3.826787e-001
      outer loop
         vertex 5.250000e+001 -7.450000e+001 1.700000e+001
         vertex 5.337866e+001 -7.450000e+001 1.912130e+001
         vertex 5.250000e+001 7.450000e+001 1.700000e+001
      endloop
   endfacet
   facet normal -3.826878e-001 0.000000e+000 9.238777e-001
      outer loop
         vertex 5.550000e+001 7.450000e+001 2.000000e+001
         vertex 5.337866e+001 7.450000e+001 1.912130e+001
         vertex 5.337866e+001 -7.450000e+001 1.912130e+001
      endloop
   endfacet
   facet normal -0.000000e+000 3.826884e-001 9.238775e-001
      outer loop
         vertex -4.950000e+001 -7.837866e+001 1.912130e+001
         vertex -4.950000e+001 -8.050000e+001 2.000000e+001
         vertex 4.950000e+001 -8.050000e+001 2.000000e+001
      endloop
   endfacet
   facet normal 0.000000e+000 9.238809e-001 3.826801e-001
      outer loop
         vertex 4.950000e+001 -7.837866e+001 1.912130e+001
         vertex 4.950000e+001 -7.750000e+001 1.700000e+001
         vertex -4.950000e+001 -7.837866e+001 1.912130e+001
      endloop
   endfacet
   facet normal 0.000000e+000 9.238809e-001 3.826801e-001
      outer loop
         vertex -4.950000e+001 -7.750000e+001 1.700000e+001
         vertex -4.950000e+001 -7.837866e+001 1.912130e+001
         vertex 4.950000e+001 -7.750000e+001 1.700000e+001
      endloop
   endfacet
   facet normal 0.000000e+000 3.826884e-001 9.238775e-001
      outer loop
         vertex 4.950000e+001 -8.050000e+001 2.000000e+001
         vertex 4.950000e+001 -7.837866e+001 1.912130e+001
         vertex -4.950000e+001 -7.837866e+001 1.912130e+001
      endloop
   endfacet
   facet normal -1.020133e-001 3.806919e-001 9.190576e-001
      outer loop
         vertex 4.950000e+001 -7.837866e+001 1.912130e+001
         vertex 4.950000e+001 -8.050000e+001 2.000000e+001
         vertex 5.143934e+001 -7.785903e+001 1.912132e+001
      endloop
   endfacet
   facet normal -3.695525e-001 2.377696e-001 8.982742e-001
      outer loop
         vertex 5.320731e+001 -7.921761e+001 2.000000e+001
         vertex 5.532988e+001 -7.591862e+001 2.000000e+001
         vertex 5.285904e+001 -7.643934e+001 1.912132e+001
      endloop
   endfacet
   facet normal -3.822855e-001 4.584358e-002 9.229064e-001
      outer loop
         vertex 5.550000e+001 -7.450000e+001 2.000000e+001
         vertex 5.337866e+001 -7.450000e+001 1.912130e+001
         vertex 5.532988e+001 -7.591862e+001 2.000000e+001
      endloop
   endfacet
   facet normal -7.552458e-001 4.859211e-001 4.398686e-001
      outer loop
         vertex 5.241495e+001 -7.520929e+001 1.700000e+001
         vertex 5.135366e+001 -7.685880e+001 1.700000e+001
         vertex 5.285904e+001 -7.643934e+001 1.912132e+001
      endloop
   endfacet
   facet normal -2.402973e-001 8.968106e-001 3.714673e-001
      outer loop
         vertex 4.950000e+001 -7.750000e+001 1.700000e+001
         vertex 4.950000e+001 -7.837866e+001 1.912130e+001
         vertex 5.143934e+001 -7.785903e+001 1.912132e+001
      endloop
   endfacet
   facet normal -6.648884e-001 6.648902e-001 3.403593e-001
      outer loop
         vertex 5.143934e+001 -7.785903e+001 1.912132e+001
         vertex 5.285904e+001 -7.643934e+001 1.912132e+001
         vertex 5.135366e+001 -7.685880e+001 1.700000e+001
      endloop
   endfacet
   facet normal -2.611659e-001 2.611666e-001 9.292924e-001
      outer loop
         vertex 5.320731e+001 -7.921761e+001 2.000000e+001
         vertex 5.285904e+001 -7.643934e+001 1.912132e+001
         vertex 5.143934e+001 -7.785903e+001 1.912132e+001
      endloop
   endfacet
   facet normal -9.110479e-001 2.441081e-001 3.322696e-001
      outer loop
         vertex 5.241495e+001 -7.520929e+001 1.700000e+001
         vertex 5.285904e+001 -7.643934e+001 1.912132e+001
         vertex 5.337866e+001 -7.450000e+001 1.912130e+001
      endloop
   endfacet
   facet normal -2.971253e-001 8.589620e-001 4.170143e-001
      outer loop
         vertex 5.143934e+001 -7.785903e+001 1.912132e+001
         vertex 5.135366e+001 -7.685880e+001 1.700000e+001
         vertex 4.950000e+001 -7.750000e+001 1.700000e+001
      endloop
   endfacet
   facet normal -1.395184e-001 4.033400e-001 9.043514e-001
      outer loop
         vertex 4.950000e+001 -8.050000e+001 2.000000e+001
         vertex 5.320731e+001 -7.921761e+001 2.000000e+001
         vertex 5.143934e+001 -7.785903e+001 1.912132e+001
      endloop
   endfacet
   facet normal -9.182637e-001 1.101110e-001 3.803517e-001
      outer loop
         vertex 5.250000e+001 -7.450000e+001 1.700000e+001
         vertex 5.241495e+001 -7.520929e+001 1.700000e+001
         vertex 5.337866e+001 -7.450000e+001 1.912130e+001
      endloop
   endfacet
   facet normal -3.511203e-001 9.408861e-002 9.315910e-001
      outer loop
         vertex 5.337866e+001 -7.450000e+001 1.912130e+001
         vertex 5.285904e+001 -7.643934e+001 1.912132e+001
         vertex 5.532988e+001 -7.591862e+001 2.000000e+001
      endloop
   endfacet
   facet normal -3.806914e-001 -1.020117e-001 9.190580e-001
      outer loop
         vertex 5.337866e+001 7.450000e+001 1.912130e+001
         vertex 5.550000e+001 7.450000e+001 2.000000e+001
         vertex 5.285904e+001 7.643934e+001 1.912132e+001
      endloop
   endfacet
   facet normal -2.377698e-001 -3.695517e-001 8.982745e-001
      outer loop
         vertex 5.421761e+001 7.820731e+001 2.000000e+001
         vertex 5.091862e+001 8.032988e+001 2.000000e+001
         vertex 5.143934e+001 7.785903e+001 1.912132e+001
      endloop
   endfacet
   facet normal -4.584353e-002 -3.822860e-001 9.229061e-001
      outer loop
         vertex 4.950000e+001 8.050000e+001 2.000000e+001
         vertex 4.950000e+001 7.837866e+001 1.912130e+001
         vertex 5.091862e+001 8.032988e+001 2.000000e+001
      endloop
   endfacet
   facet normal -4.859209e-001 -7.552463e-001 4.398681e-001
      outer loop
         vertex 5.020929e+001 7.741495e+001 1.700000e+001
         vertex 5.185880e+001 7.635366e+001 1.700000e+001
         vertex 5.143934e+001 7.785903e+001 1.912132e+001
      endloop
   endfacet
   facet normal -8.968119e-001 -2.402941e-001 3.714662e-001
      outer loop
         vertex 5.250000e+001 7.450000e+001 1.700000e+001
         vertex 5.337866e+001 7.450000e+001 1.912130e+001
         vertex 5.285904e+001 7.643934e+001 1.912132e+001
      endloop
   endfacet
   facet normal -6.648883e-001 -6.648901e-001 3.403597e-001
      outer loop
         vertex 5.285904e+001 7.643934e+001 1.912132e+001
         vertex 5.143934e+001 7.785903e+001 1.912132e+001
         vertex 5.185880e+001 7.635366e+001 1.700000e+001
      endloop
   endfacet
   facet normal -2.611664e-001 -2.611671e-001 9.292921e-001
      outer loop
         vertex 5.421761e+001 7.820731e+001 2.000000e+001
         vertex 5.143934e+001 7.785903e+001 1.912132e+001
         vertex 5.285904e+001 7.643934e+001 1.912132e+001
      endloop
   endfacet
   facet normal -2.441114e-001 -9.110468e-001 3.322701e-001
      outer loop
         vertex 5.020929e+001 7.741495e+001 1.700000e+001
         vertex 5.143934e+001 7.785903e+001 1.912132e+001
         vertex 4.950000e+001 7.837866e+001 1.912130e+001
      endloop
   endfacet
   facet normal -8.589621e-001 -2.971242e-001 4.170149e-001
      outer loop
         vertex 5.285904e+001 7.643934e+001 1.912132e+001
         vertex 5.185880e+001 7.635366e+001 1.700000e+001
         vertex 5.250000e+001 7.450000e+001 1.700000e+001
      endloop
   endfacet
   facet normal -4.033408e-001 -1.395188e-001 9.043510e-001
      outer loop
         vertex 5.550000e+001 7.450000e+001 2.000000e+001
         vertex 5.421761e+001 7.820731e+001 2.000000e+001
         vertex 5.285904e+001 7.643934e+001 1.912132e+001
      endloop
   endfacet
   facet normal -1.101116e-001 -9.182630e-001 3.803531e-001
      outer loop
         vertex 4.950000e+001 7.750000e+001 1.700000e+001
         vertex 5.020929e+001 7.741495e+001 1.700000e+001
         vertex 4.950000e+001 7.837866e+001 1.912130e+001
      endloop
   endfacet
   facet normal -9.408988e-002 -3.511199e-001 9.315911e-001
      outer loop
         vertex 4.950000e+001 7.837866e+001 1.912130e+001
         vertex 5.143934e+001 7.785903e+001 1.912132e+001
         vertex 5.091862e+001 8.032988e+001 2.000000e+001
      endloop
   endfacet
   facet normal 1.020133e-001 -3.806919e-001 9.190576e-001
      outer loop
         vertex -4.950000e+001 7.837866e+001 1.912130e+001
         vertex -4.950000e+001 8.050000e+001 2.000000e+001
         vertex -5.143934e+001 7.785903e+001 1.912132e+001
      endloop
   endfacet
   facet normal 3.695525e-001 -2.377696e-001 8.982742e-001
      outer loop
         vertex -5.320731e+001 7.921761e+001 2.000000e+001
         vertex -5.532988e+001 7.591862e+001 2.000000e+001
         vertex -5.285904e+001 7.643934e+001 1.912132e+001
      endloop
   endfacet
   facet normal 3.822855e-001 -4.584358e-002 9.229064e-001
      outer loop
         vertex -5.550000e+001 7.450000e+001 2.000000e+001
         vertex -5.337866e+001 7.450000e+001 1.912130e+001
         vertex -5.532988e+001 7.591862e+001 2.000000e+001
      endloop
   endfacet
   facet normal 7.552458e-001 -4.859211e-001 4.398686e-001
      outer loop
         vertex -5.241495e+001 7.520929e+001 1.700000e+001
         vertex -5.135366e+001 7.685880e+001 1.700000e+001
         vertex -5.285904e+001 7.643934e+001 1.912132e+001
      endloop
   endfacet
   facet normal 2.402973e-001 -8.968106e-001 3.714673e-001
      outer loop
         vertex -4.950000e+001 7.750000e+001 1.700000e+001
         vertex -4.950000e+001 7.837866e+001 1.912130e+001
         vertex -5.143934e+001 7.785903e+001 1.912132e+001
      endloop
   endfacet
   facet normal 6.648884e-001 -6.648902e-001 3.403593e-001
      outer loop
         vertex -5.143934e+001 7.785903e+001 1.912132e+001
         vertex -5.285904e+001 7.643934e+001 1.912132e+001
         vertex -5.135366e+001 7.685880e+001 1.700000e+001
      endloop
   endfacet
   facet normal 2.611659e-001 -2.611666e-001 9.292924e-001
      outer loop
         vertex -5.320731e+001 7.921761e+001 2.000000e+001
         vertex -5.285904e+001 7.643934e+001 1.912132e+001
         vertex -5.143934e+001 7.785903e+001 1.912132e+001
      endloop
   endfacet
   facet normal 9.110479e-001 -2.441081e-001 3.322696e-001
      outer loop
         vertex -5.241495e+001 7.520929e+001 1.700000e+001
         vertex -5.285904e+001 7.643934e+001 1.912132e+001
         vertex -5.337866e+001 7.450000e+001 1.912130e+001
      endloop
   endfacet
   facet normal 2.971253e-001 -8.589620e-001 4.170143e-001
      outer loop
         vertex -5.143934e+001 7.785903e+001 1.912132e+001
         vertex -5.135366e+001 7.685880e+001 1.700000e+001
         vertex -4.950000e+001 7.750000e+001 1.700000e+001
      endloop
   endfacet
   facet normal 1.395184e-001 -4.033400e-001 9.043514e-001
      outer loop
         vertex -4.950000e+001 8.050000e+001 2.000000e+001
         vertex -5.320731e+001 7.921761e+001 2.000000e+001
         vertex -5.143934e+001 7.785903e+001 1.912132e+001
      endloop
   endfacet
   facet normal 9.182637e-001 -1.101110e-001 3.803517e-001
      outer loop
         vertex -5.250000e+001 7.450000e+001 1.700000e+001
         vertex -5.241495e+001 7.520929e+001 1.700000e+001
         vertex -5.337866e+001 7.450000e+001 1.912130e+001
      endloop
   endfacet
   facet normal 3.511203e-001 -9.408861e-002 9.315910e-001
      outer loop
         vertex -5.337866e+001 7.450000e+001 1.912130e+001
         vertex -5.285904e+001 7.643934e+001 1.912132e+001
         vertex -5.532988e+001 7.591862e+001 2.000000e+001
      endloop
   endfacet
   facet normal 3.806914e-001 1.020117e-001 9.190580e-001
      outer loop
         vertex -5.337866e+001 -7.450000e+001 1.912130e+001
         vertex -5.550000e+001 -7.450000e+001 2.000000e+001
         vertex -5.285904e+001 -7.643934e+001 1.912132e+001
      endloop
   endfacet
   facet normal 2.377698e-001 3.695517e-001 8.982745e-001
      outer loop
         vertex -5.421761e+001 -7.820731e+001 2.000000e+001
         vertex -5.091862e+001 -8.032988e+001 2.000000e+001
         vertex -5.143934e+001 -7.785903e+001 1.912132e+001
      endloop
   endfacet
   facet normal 4.584353e-002 3.822860e-001 9.229061e-001
      outer loop
         vertex -4.950000e+001 -8.050000e+001 2.000000e+001
         vertex -4.950000e+001 -7.837866e+001 1.912130e+001
         vertex -5.091862e+001 -8.032988e+001 2.000000e+001
      endloop
   endfacet
   facet normal 4.859209e-001 7.552463e-001 4.398681e-001
      outer loop
         vertex -5.020929e+001 -7.741495e+001 1.700000e+001
         vertex -5.185880e+001 -7.635366e+001 1.700000e+001
         vertex -5.143934e+001 -7.785903e+001 1.912132e+001
      endloop
   endfacet
   facet normal 8.968119e-001 2.402941e-001 3.714662e-001
      outer loop
         vertex -5.250000e+001 -7.450000e+001 1.700000e+001
         vertex -5.337866e+001 -7.450000e+001 1.912130e+001
         vertex -5.285904e+001 -7.643934e+001 1.912132e+001
      endloop
   endfacet
   facet normal 6.648883e-001 6.648901e-001 3.403597e-001
      outer loop
         vertex -5.285904e+001 -7.643934e+001 1.912132e+001
         vertex -5.143934e+001 -7.785903e+001 1.912132e+001
         vertex -5.185880e+001 -7.635366e+001 1.700000e+001
      endloop
   endfacet
   facet normal 2.611664e-001 2.611671e-001 9.292921e-001
      outer loop
         vertex -5.421761e+001 -7.820731e+001 2.000000e+001
         vertex -5.143934e+001 -7.785903e+001 1.912132e+001
         vertex -5.285904e+001 -7.643934e+001 1.912132e+001
      endloop
   endfacet
   facet normal 2.441114e-001 9.110468e-001 3.322701e-001
      outer loop
         vertex -5.020929e+001 -7.741495e+001 1.700000e+001
         vertex -5.143934e+001 -7.785903e+001 1.912132e+001
         vertex -4.950000e+001 -7.837866e+001 1.912130e+001
      endloop
   endfacet
   facet normal 8.589621e-001 2.971242e-001 4.170149e-001
      outer loop
         vertex -5.285904e+001 -7.643934e+001 1.912132e+001
         vertex -5.185880e+001 -7.635366e+001 1.700000e+001
         vertex -5.250000e+001 -7.450000e+001 1.700000e+001
      endloop
   endfacet
   facet normal 4.033408e-001 1.395188e-001 9.043510e-001
      outer loop
         vertex -5.550000e+001 -7.450000e+001 2.000000e+001
         vertex -5.421761e+001 -7.820731e+001 2.000000e+001
         vertex -5.285904e+001 -7.643934e+001 1.912132e+001
      endloop
   endfacet
   facet normal 1.101116e-001 9.182630e-001 3.803531e-001
      outer loop
         vertex -4.950000e+001 -7.750000e+001 1.700000e+001
         vertex -5.020929e+001 -7.741495e+001 1.700000e+001
         vertex -4.950000e+001 -7.837866e+001 1.912130e+001
      endloop
   endfacet
   facet normal 9.408988e-002 3.511199e-001 9.315911e-001
      outer loop
         vertex -4.950000e+001 -7.837866e+001 1.912130e+001
         vertex -5.143934e+001 -7.785903e+001 1.912132e+001
         vertex -5.091862e+001 -8.032988e+001 2.000000e+001
      endloop
   endfacet
   facet normal 0.000000e+000 -3.826884e-001 9.238775e-001
      outer loop
         vertex 4.950000e+001 7.837866e+001 1.912130e+001
         vertex 4.950000e+001 8.050000e+001 2.000000e+001
         vertex -4.950000e+001 8.050000e+001 2.000000e+001
      endloop
   endfacet
   facet normal 0.000000e+000 -9.238809e-001 3.826801e-001
      outer loop
         vertex -4.950000e+001 7.837866e+001 1.912130e+001
         vertex -4.950000e+001 7.750000e+001 1.700000e+001
         vertex 4.950000e+001 7.837866e+001 1.912130e+001
      endloop
   endfacet
   facet normal 0.000000e+000 -9.238809e-001 3.826801e-001
      outer loop
         vertex 4.950000e+001 7.750000e+001 1.700000e+001
         vertex 4.950000e+001 7.837866e+001 1.912130e+001
         vertex -4.950000e+001 7.750000e+001 1.700000e+001
      endloop
   endfacet
   facet normal 0.000000e+000 -3.826884e-001 9.238775e-001
      outer loop
         vertex -4.950000e+001 8.050000e+001 2.000000e+001
         vertex -4.950000e+001 7.837866e+001 1.912130e+001
         vertex 4.950000e+001 7.837866e+001 1.912130e+001
      endloop
   endfacet
endsolid
