solid 
   facet normal -9.616917e-001 -2.741333e-001 0.000000e+000
      outer loop
         vertex -5.100000e+001 -7.300000e+001 2.000000e+001
         vertex -5.100000e+001 -7.300000e+001 4.000000e+000
         vertex -5.054911e+001 -7.458179e+001 4.000000e+000
      endloop
   endfacet
   facet normal -2.280003e-001 -9.736611e-001 0.000000e+000
      outer loop
         vertex -4.933197e+001 -7.568810e+001 4.000000e+000
         vertex -4.800000e+001 -7.600000e+001 4.000000e+000
         vertex -4.800000e+001 -7.600000e+001 2.000000e+001
      endloop
   endfacet
   facet normal -9.238145e-001 -3.826587e-001 1.179642e-002
      outer loop
         vertex -5.012131e+001 -7.512133e+001 2.000000e+001
         vertex -5.100000e+001 -7.300000e+001 2.000000e+001
         vertex -5.054911e+001 -7.458179e+001 4.000000e+000
      endloop
   endfacet
   facet normal -6.725967e-001 -7.399765e-001 -6.969717e-003
      outer loop
         vertex -5.012131e+001 -7.512133e+001 2.000000e+001
         vertex -5.054911e+001 -7.458179e+001 4.000000e+000
         vertex -4.933197e+001 -7.568810e+001 4.000000e+000
      endloop
   endfacet
   facet normal -3.826445e-001 -9.237919e-001 1.384599e-002
      outer loop
         vertex -4.800000e+001 -7.600000e+001 2.000000e+001
         vertex -5.012131e+001 -7.512133e+001 2.000000e+001
         vertex -4.933197e+001 -7.568810e+001 4.000000e+000
      endloop
   endfacet
   facet normal 1.000000e+000 0.000000e+000 0.000000e+000
      outer loop
         vertex 5.100000e+001 -7.300000e+001 2.000000e+001
         vertex 5.100000e+001 -7.300000e+001 4.000000e+000
         vertex 5.100000e+001 7.300000e+001 2.000000e+001
      endloop
   endfacet
   facet normal 1.000000e+000 0.000000e+000 -0.000000e+000
      outer loop
         vertex 5.100000e+001 -7.300000e+001 4.000000e+000
         vertex 5.100000e+001 7.300000e+001 4.000000e+000
         vertex 5.100000e+001 7.300000e+001 2.000000e+001
      endloop
   endfacet
   facet normal 2.741311e-001 -9.616923e-001 0.000000e+000
      outer loop
         vertex 4.800000e+001 -7.600000e+001 2.000000e+001
         vertex 4.800000e+001 -7.600000e+001 4.000000e+000
         vertex 4.958179e+001 -7.554911e+001 4.000000e+000
      endloop
   endfacet
   facet normal 9.736611e-001 -2.280003e-001 0.000000e+000
      outer loop
         vertex 5.068810e+001 -7.433197e+001 4.000000e+000
         vertex 5.100000e+001 -7.300000e+001 4.000000e+000
         vertex 5.100000e+001 -7.300000e+001 2.000000e+001
      endloop
   endfacet
   facet normal 3.826601e-001 -9.238139e-001 1.179680e-002
      outer loop
         vertex 5.012133e+001 -7.512131e+001 2.000000e+001
         vertex 4.800000e+001 -7.600000e+001 2.000000e+001
         vertex 4.958179e+001 -7.554911e+001 4.000000e+000
      endloop
   endfacet
   facet normal 7.399775e-001 -6.725955e-001 -6.969462e-003
      outer loop
         vertex 5.012133e+001 -7.512131e+001 2.000000e+001
         vertex 4.958179e+001 -7.554911e+001 4.000000e+000
         vertex 5.068810e+001 -7.433197e+001 4.000000e+000
      endloop
   endfacet
   facet normal 9.237917e-001 -3.826451e-001 1.384604e-002
      outer loop
         vertex 5.100000e+001 -7.300000e+001 2.000000e+001
         vertex 5.012133e+001 -7.512131e+001 2.000000e+001
         vertex 5.068810e+001 -7.433197e+001 4.000000e+000
      endloop
   endfacet
   facet normal -0.000000e+000 0.000000e+000 -1.000000e+000
      outer loop
         vertex -4.700000e+001 7.200000e+001 0.000000e+000
         vertex 4.700000e+001 7.200000e+001 0.000000e+000
         vertex -4.700000e+001 -7.200000e+001 0.000000e+000
      endloop
   endfacet
   facet normal 0.000000e+000 -0.000000e+000 -1.000000e+000
      outer loop
         vertex -4.700000e+001 -7.200000e+001 0.000000e+000
         vertex 4.700000e+001 7.200000e+001 0.000000e+000
         vertex 4.700000e+001 -7.200000e+001 0.000000e+000
      endloop
   endfacet
   facet normal -1.000000e+000 0.000000e+000 0.000000e+000
      outer loop
         vertex -5.100000e+001 7.300000e+001 2.000000e+001
         vertex -5.100000e+001 7.300000e+001 4.000000e+000
         vertex -5.100000e+001 -7.300000e+001 2.000000e+001
      endloop
   endfacet
   facet normal -1.000000e+000 0.000000e+000 0.000000e+000
      outer loop
         vertex -5.100000e+001 7.300000e+001 4.000000e+000
         vertex -5.100000e+001 -7.300000e+001 4.000000e+000
         vertex -5.100000e+001 -7.300000e+001 2.000000e+001
      endloop
   endfacet
   facet normal 0.000000e+000 1.000000e+000 -0.000000e+000
      outer loop
         vertex 4.800000e+001 7.600000e+001 2.000000e+001
         vertex 4.800000e+001 7.600000e+001 4.000000e+000
         vertex -4.800000e+001 7.600000e+001 2.000000e+001
      endloop
   endfacet
   facet normal 0.000000e+000 1.000000e+000 0.000000e+000
      outer loop
         vertex -4.800000e+001 7.600000e+001 2.000000e+001
         vertex 4.800000e+001 7.600000e+001 4.000000e+000
         vertex -4.800000e+001 7.600000e+001 4.000000e+000
      endloop
   endfacet
   facet normal 0.000000e+000 0.000000e+000 1.000000e+000
      outer loop
         vertex 5.012133e+001 -7.512131e+001 2.000000e+001
         vertex 5.100000e+001 -7.300000e+001 2.000000e+001
         vertex 4.800000e+001 -7.600000e+001 2.000000e+001
      endloop
   endfacet
   facet normal 0.000000e+000 0.000000e+000 1.000000e+000
      outer loop
         vertex 5.100000e+001 -7.300000e+001 2.000000e+001
         vertex 5.100000e+001 7.300000e+001 2.000000e+001
         vertex 4.800000e+001 -7.600000e+001 2.000000e+001
      endloop
   endfacet
   facet normal 0.000000e+000 0.000000e+000 1.000000e+000
      outer loop
         vertex 4.800000e+001 -7.600000e+001 2.000000e+001
         vertex 5.100000e+001 7.300000e+001 2.000000e+001
         vertex -4.800000e+001 -7.600000e+001 2.000000e+001
      endloop
   endfacet
   facet normal 0.000000e+000 0.000000e+000 1.000000e+000
      outer loop
         vertex 5.100000e+001 7.300000e+001 2.000000e+001
         vertex 5.012131e+001 7.512133e+001 2.000000e+001
         vertex -4.800000e+001 -7.600000e+001 2.000000e+001
      endloop
   endfacet
   facet normal 0.000000e+000 0.000000e+000 1.000000e+000
      outer loop
         vertex -4.800000e+001 -7.600000e+001 2.000000e+001
         vertex 5.012131e+001 7.512133e+001 2.000000e+001
         vertex -5.012131e+001 -7.512133e+001 2.000000e+001
      endloop
   endfacet
   facet normal 0.000000e+000 0.000000e+000 1.000000e+000
      outer loop
         vertex 5.012131e+001 7.512133e+001 2.000000e+001
         vertex 4.800000e+001 7.600000e+001 2.000000e+001
         vertex -5.012131e+001 -7.512133e+001 2.000000e+001
      endloop
   endfacet
   facet normal 0.000000e+000 0.000000e+000 1.000000e+000
      outer loop
         vertex -5.012131e+001 -7.512133e+001 2.000000e+001
         vertex 4.800000e+001 7.600000e+001 2.000000e+001
         vertex -5.100000e+001 -7.300000e+001 2.000000e+001
      endloop
   endfacet
   facet normal -0.000000e+000 0.000000e+000 1.000000e+000
      outer loop
         vertex 4.800000e+001 7.600000e+001 2.000000e+001
         vertex -4.800000e+001 7.600000e+001 2.000000e+001
         vertex -5.100000e+001 -7.300000e+001 2.000000e+001
      endloop
   endfacet
   facet normal 0.000000e+000 0.000000e+000 1.000000e+000
      outer loop
         vertex -5.100000e+001 -7.300000e+001 2.000000e+001
         vertex -4.800000e+001 7.600000e+001 2.000000e+001
         vertex -5.100000e+001 7.300000e+001 2.000000e+001
      endloop
   endfacet
   facet normal -0.000000e+000 0.000000e+000 1.000000e+000
      outer loop
         vertex -4.800000e+001 7.600000e+001 2.000000e+001
         vertex -5.012133e+001 7.512131e+001 2.000000e+001
         vertex -5.100000e+001 7.300000e+001 2.000000e+001
      endloop
   endfacet
   facet normal 9.616917e-001 2.741333e-001 -0.000000e+000
      outer loop
         vertex 5.100000e+001 7.300000e+001 2.000000e+001
         vertex 5.100000e+001 7.300000e+001 4.000000e+000
         vertex 5.054911e+001 7.458179e+001 4.000000e+000
      endloop
   endfacet
   facet normal 2.280003e-001 9.736611e-001 -0.000000e+000
      outer loop
         vertex 4.933197e+001 7.568810e+001 4.000000e+000
         vertex 4.800000e+001 7.600000e+001 4.000000e+000
         vertex 4.800000e+001 7.600000e+001 2.000000e+001
      endloop
   endfacet
   facet normal 9.238145e-001 3.826587e-001 1.179642e-002
      outer loop
         vertex 5.012131e+001 7.512133e+001 2.000000e+001
         vertex 5.100000e+001 7.300000e+001 2.000000e+001
         vertex 5.054911e+001 7.458179e+001 4.000000e+000
      endloop
   endfacet
   facet normal 6.725967e-001 7.399765e-001 -6.969717e-003
      outer loop
         vertex 5.012131e+001 7.512133e+001 2.000000e+001
         vertex 5.054911e+001 7.458179e+001 4.000000e+000
         vertex 4.933197e+001 7.568810e+001 4.000000e+000
      endloop
   endfacet
   facet normal 3.826445e-001 9.237919e-001 1.384599e-002
      outer loop
         vertex 4.800000e+001 7.600000e+001 2.000000e+001
         vertex 5.012131e+001 7.512133e+001 2.000000e+001
         vertex 4.933197e+001 7.568810e+001 4.000000e+000
      endloop
   endfacet
   facet normal 0.000000e+000 -1.000000e+000 0.000000e+000
      outer loop
         vertex -4.800000e+001 -7.600000e+001 2.000000e+001
         vertex -4.800000e+001 -7.600000e+001 4.000000e+000
         vertex 4.800000e+001 -7.600000e+001 2.000000e+001
      endloop
   endfacet
   facet normal 0.000000e+000 -1.000000e+000 0.000000e+000
      outer loop
         vertex 4.800000e+001 -7.600000e+001 2.000000e+001
         vertex -4.800000e+001 -7.600000e+001 4.000000e+000
         vertex 4.800000e+001 -7.600000e+001 4.000000e+000
      endloop
   endfacet
   facet normal -2.741311e-001 9.616923e-001 0.000000e+000
      outer loop
         vertex -4.800000e+001 7.600000e+001 2.000000e+001
         vertex -4.800000e+001 7.600000e+001 4.000000e+000
         vertex -4.958179e+001 7.554911e+001 4.000000e+000
      endloop
   endfacet
   facet normal -9.736611e-001 2.280003e-001 0.000000e+000
      outer loop
         vertex -5.068810e+001 7.433197e+001 4.000000e+000
         vertex -5.100000e+001 7.300000e+001 4.000000e+000
         vertex -5.100000e+001 7.300000e+001 2.000000e+001
      endloop
   endfacet
   facet normal -3.826601e-001 9.238139e-001 1.179680e-002
      outer loop
         vertex -5.012133e+001 7.512131e+001 2.000000e+001
         vertex -4.800000e+001 7.600000e+001 2.000000e+001
         vertex -4.958179e+001 7.554911e+001 4.000000e+000
      endloop
   endfacet
   facet normal -7.399775e-001 6.725955e-001 -6.969462e-003
      outer loop
         vertex -5.012133e+001 7.512131e+001 2.000000e+001
         vertex -4.958179e+001 7.554911e+001 4.000000e+000
         vertex -5.068810e+001 7.433197e+001 4.000000e+000
      endloop
   endfacet
   facet normal -9.237917e-001 3.826451e-001 1.384604e-002
      outer loop
         vertex -5.100000e+001 7.300000e+001 2.000000e+001
         vertex -5.012133e+001 7.512131e+001 2.000000e+001
         vertex -5.068810e+001 7.433197e+001 4.000000e+000
      endloop
   endfacet
   facet normal 0.000000e+000 9.637123e-001 -2.669432e-001
      outer loop
         vertex 4.785748e+001 7.542993e+001 1.941952e+000
         vertex -4.785748e+001 7.542993e+001 1.941952e+000
         vertex -4.800000e+001 7.600000e+001 4.000000e+000
      endloop
   endfacet
   facet normal 0.000000e+000 2.450777e-001 -9.695035e-001
      outer loop
         vertex 4.700000e+001 7.200000e+001 0.000000e+000
         vertex -4.700000e+001 7.200000e+001 0.000000e+000
         vertex -4.747520e+001 7.390083e+001 4.805055e-001
      endloop
   endfacet
   facet normal 0.000000e+000 6.909340e-001 -7.229179e-001
      outer loop
         vertex -4.785748e+001 7.542993e+001 1.941952e+000
         vertex 4.785748e+001 7.542993e+001 1.941952e+000
         vertex 4.747520e+001 7.390083e+001 4.805055e-001
      endloop
   endfacet
   facet normal 0.000000e+000 9.637123e-001 -2.669432e-001
      outer loop
         vertex 4.785748e+001 7.542993e+001 1.941952e+000
         vertex -4.800000e+001 7.600000e+001 4.000000e+000
         vertex 4.800000e+001 7.600000e+001 4.000000e+000
      endloop
   endfacet
   facet normal 0.000000e+000 6.909340e-001 -7.229179e-001
      outer loop
         vertex 4.747520e+001 7.390083e+001 4.805055e-001
         vertex -4.747520e+001 7.390083e+001 4.805055e-001
         vertex -4.785748e+001 7.542993e+001 1.941952e+000
      endloop
   endfacet
   facet normal 0.000000e+000 2.450777e-001 -9.695035e-001
      outer loop
         vertex 4.747520e+001 7.390083e+001 4.805055e-001
         vertex 4.700000e+001 7.200000e+001 0.000000e+000
         vertex -4.747520e+001 7.390083e+001 4.805055e-001
      endloop
   endfacet
   facet normal -4.647785e-001 6.473680e-001 -6.040659e-001
      outer loop
         vertex -4.906483e+001 7.406483e+001 1.149988e+000
         vertex -4.977041e+001 7.477041e+001 2.449022e+000
         vertex -4.891163e+001 7.538697e+001 2.449022e+000
      endloop
   endfacet
   facet normal -4.798859e-001 6.425403e-001 -5.973705e-001
      outer loop
         vertex -4.842695e+001 7.454124e+001 1.149988e+000
         vertex -4.906483e+001 7.406483e+001 1.149988e+000
         vertex -4.891163e+001 7.538697e+001 2.449022e+000
      endloop
   endfacet
   facet normal -6.509638e-001 4.673601e-001 -5.981811e-001
      outer loop
         vertex -4.954124e+001 7.342695e+001 1.149988e+000
         vertex -5.038697e+001 7.391163e+001 2.449022e+000
         vertex -4.977041e+001 7.477041e+001 2.449022e+000
      endloop
   endfacet
   facet normal -6.378311e-001 4.763689e-001 -6.051812e-001
      outer loop
         vertex -4.906483e+001 7.406483e+001 1.149988e+000
         vertex -4.954124e+001 7.342695e+001 1.149988e+000
         vertex -4.977041e+001 7.477041e+001 2.449022e+000
      endloop
   endfacet
   facet normal -3.196639e-001 4.280120e-001 -8.453524e-001
      outer loop
         vertex -4.809968e+001 7.309968e+001 2.963508e-001
         vertex -4.906483e+001 7.406483e+001 1.149988e+000
         vertex -4.842695e+001 7.454124e+001 1.149988e+000
      endloop
   endfacet
   facet normal -3.247584e-001 4.262365e-001 -8.443071e-001
      outer loop
         vertex -4.776056e+001 7.335806e+001 2.963508e-001
         vertex -4.809968e+001 7.309968e+001 2.963508e-001
         vertex -4.842695e+001 7.454124e+001 1.149988e+000
      endloop
   endfacet
   facet normal -4.289402e-001 3.203572e-001 -8.446192e-001
      outer loop
         vertex -4.835806e+001 7.276056e+001 2.963508e-001
         vertex -4.954124e+001 7.342695e+001 1.149988e+000
         vertex -4.906483e+001 7.406483e+001 1.149988e+000
      endloop
   endfacet
   facet normal -4.245160e-001 3.234465e-001 -8.456764e-001
      outer loop
         vertex -4.809968e+001 7.309968e+001 2.963508e-001
         vertex -4.835806e+001 7.276056e+001 2.963508e-001
         vertex -4.906483e+001 7.406483e+001 1.149988e+000
      endloop
   endfacet
   facet normal -9.465254e-001 1.703655e-001 -2.739805e-001
      outer loop
         vertex -5.038697e+001 7.391163e+001 2.449022e+000
         vertex -5.042993e+001 7.285748e+001 1.941942e+000
         vertex -5.100000e+001 7.300000e+001 4.000000e+000
      endloop
   endfacet
   facet normal -2.686189e-001 -1.066263e-001 -9.573269e-001
      outer loop
         vertex -4.835806e+001 7.276056e+001 2.963508e-001
         vertex -4.700000e+001 7.200000e+001 0.000000e+000
         vertex -4.890057e+001 7.247514e+001 4.803659e-001
      endloop
   endfacet
   facet normal 0.000000e+000 -0.000000e+000 0.000000e+000
      outer loop
         vertex -4.835806e+001 7.276056e+001 2.963508e-001
         vertex -4.700000e+001 7.200000e+001 0.000000e+000
         vertex -4.700000e+001 7.200000e+001 0.000000e+000
      endloop
   endfacet
   facet normal 0.000000e+000 -0.000000e+000 0.000000e+000
      outer loop
         vertex -4.776056e+001 7.335806e+001 2.963508e-001
         vertex -4.700000e+001 7.200000e+001 0.000000e+000
         vertex -4.700000e+001 7.200000e+001 0.000000e+000
      endloop
   endfacet
   facet normal -5.282438e-002 6.830360e-001 -7.284719e-001
      outer loop
         vertex -4.842695e+001 7.454124e+001 1.149988e+000
         vertex -4.785748e+001 7.542993e+001 1.941952e+000
         vertex -4.747520e+001 7.390083e+001 4.805055e-001
      endloop
   endfacet
   facet normal -2.677856e-001 9.394313e-001 -2.139153e-001
      outer loop
         vertex -4.891163e+001 7.538697e+001 2.449022e+000
         vertex -4.958179e+001 7.554911e+001 4.000000e+000
         vertex -4.800000e+001 7.600000e+001 4.000000e+000
      endloop
   endfacet
   facet normal -9.444053e-001 2.211496e-001 -2.432929e-001
      outer loop
         vertex -5.038697e+001 7.391163e+001 2.449022e+000
         vertex -5.100000e+001 7.300000e+001 4.000000e+000
         vertex -5.068810e+001 7.433197e+001 4.000000e+000
      endloop
   endfacet
   facet normal -7.746207e-001 5.561397e-001 -3.011170e-001
      outer loop
         vertex -5.068810e+001 7.433197e+001 4.000000e+000
         vertex -4.977041e+001 7.477041e+001 2.449022e+000
         vertex -5.038697e+001 7.391163e+001 2.449022e+000
      endloop
   endfacet
   facet normal -7.361376e-001 3.175255e-001 -5.977283e-001
      outer loop
         vertex -5.042993e+001 7.285748e+001 1.941942e+000
         vertex -5.038697e+001 7.391163e+001 2.449022e+000
         vertex -4.954124e+001 7.342695e+001 1.149988e+000
      endloop
   endfacet
   facet normal -4.430958e-001 2.968596e-001 -8.458963e-001
      outer loop
         vertex -4.890057e+001 7.247514e+001 4.803659e-001
         vertex -4.954124e+001 7.342695e+001 1.149988e+000
         vertex -4.835806e+001 7.276056e+001 2.963508e-001
      endloop
   endfacet
   facet normal -1.502003e-001 1.144403e-001 -9.820098e-001
      outer loop
         vertex -4.700000e+001 7.200000e+001 0.000000e+000
         vertex -4.835806e+001 7.276056e+001 2.963508e-001
         vertex -4.809968e+001 7.309968e+001 2.963508e-001
      endloop
   endfacet
   facet normal 0.000000e+000 0.000000e+000 0.000000e+000
      outer loop
         vertex -4.700000e+001 7.200000e+001 0.000000e+000
         vertex -4.835806e+001 7.276056e+001 2.963508e-001
         vertex -4.700000e+001 7.200000e+001 0.000000e+000
      endloop
   endfacet
   facet normal -3.175224e-001 7.361390e-001 -5.977281e-001
      outer loop
         vertex -4.891163e+001 7.538697e+001 2.449022e+000
         vertex -4.785748e+001 7.542993e+001 1.941952e+000
         vertex -4.842695e+001 7.454124e+001 1.149988e+000
      endloop
   endfacet
   facet normal -7.182873e-001 6.528804e-001 -2.404383e-001
      outer loop
         vertex -4.958179e+001 7.554911e+001 4.000000e+000
         vertex -4.977041e+001 7.477041e+001 2.449022e+000
         vertex -5.068810e+001 7.433197e+001 4.000000e+000
      endloop
   endfacet
   facet normal 0.000000e+000 0.000000e+000 -0.000000e+000
      outer loop
         vertex -4.700000e+001 7.200000e+001 0.000000e+000
         vertex -4.700000e+001 7.200000e+001 0.000000e+000
         vertex -4.809968e+001 7.309968e+001 2.963508e-001
      endloop
   endfacet
   facet normal -1.144405e-001 1.502000e-001 -9.820098e-001
      outer loop
         vertex -4.776056e+001 7.335806e+001 2.963508e-001
         vertex -4.700000e+001 7.200000e+001 0.000000e+000
         vertex -4.809968e+001 7.309968e+001 2.963508e-001
      endloop
   endfacet
   facet normal -6.830163e-001 5.277077e-002 -7.284943e-001
      outer loop
         vertex -4.954124e+001 7.342695e+001 1.149988e+000
         vertex -4.890057e+001 7.247514e+001 4.803659e-001
         vertex -5.042993e+001 7.285748e+001 1.941942e+000
      endloop
   endfacet
   facet normal -1.703661e-001 9.465254e-001 -2.739802e-001
      outer loop
         vertex -4.891163e+001 7.538697e+001 2.449022e+000
         vertex -4.800000e+001 7.600000e+001 4.000000e+000
         vertex -4.785748e+001 7.542993e+001 1.941952e+000
      endloop
   endfacet
   facet normal -2.968840e-001 4.430817e-001 -8.458951e-001
      outer loop
         vertex -4.747520e+001 7.390083e+001 4.805055e-001
         vertex -4.776056e+001 7.335806e+001 2.963508e-001
         vertex -4.842695e+001 7.454124e+001 1.149988e+000
      endloop
   endfacet
   facet normal -5.526826e-001 7.698054e-001 -3.192830e-001
      outer loop
         vertex -4.977041e+001 7.477041e+001 2.449022e+000
         vertex -4.958179e+001 7.554911e+001 4.000000e+000
         vertex -4.891163e+001 7.538697e+001 2.449022e+000
      endloop
   endfacet
   facet normal 1.067460e-001 2.686783e-001 -9.572969e-001
      outer loop
         vertex -4.776056e+001 7.335806e+001 2.963508e-001
         vertex -4.747520e+001 7.390083e+001 4.805055e-001
         vertex -4.700000e+001 7.200000e+001 0.000000e+000
      endloop
   endfacet
   facet normal 4.647785e-001 -6.473680e-001 -6.040659e-001
      outer loop
         vertex 4.906483e+001 -7.406483e+001 1.149988e+000
         vertex 4.977041e+001 -7.477041e+001 2.449022e+000
         vertex 4.891163e+001 -7.538697e+001 2.449022e+000
      endloop
   endfacet
   facet normal 4.798859e-001 -6.425403e-001 -5.973705e-001
      outer loop
         vertex 4.842695e+001 -7.454124e+001 1.149988e+000
         vertex 4.906483e+001 -7.406483e+001 1.149988e+000
         vertex 4.891163e+001 -7.538697e+001 2.449022e+000
      endloop
   endfacet
   facet normal 6.509638e-001 -4.673601e-001 -5.981811e-001
      outer loop
         vertex 4.954124e+001 -7.342695e+001 1.149988e+000
         vertex 5.038697e+001 -7.391163e+001 2.449022e+000
         vertex 4.977041e+001 -7.477041e+001 2.449022e+000
      endloop
   endfacet
   facet normal 6.378311e-001 -4.763689e-001 -6.051812e-001
      outer loop
         vertex 4.906483e+001 -7.406483e+001 1.149988e+000
         vertex 4.954124e+001 -7.342695e+001 1.149988e+000
         vertex 4.977041e+001 -7.477041e+001 2.449022e+000
      endloop
   endfacet
   facet normal 3.196639e-001 -4.280120e-001 -8.453524e-001
      outer loop
         vertex 4.809968e+001 -7.309968e+001 2.963508e-001
         vertex 4.906483e+001 -7.406483e+001 1.149988e+000
         vertex 4.842695e+001 -7.454124e+001 1.149988e+000
      endloop
   endfacet
   facet normal 3.247584e-001 -4.262365e-001 -8.443071e-001
      outer loop
         vertex 4.776056e+001 -7.335806e+001 2.963508e-001
         vertex 4.809968e+001 -7.309968e+001 2.963508e-001
         vertex 4.842695e+001 -7.454124e+001 1.149988e+000
      endloop
   endfacet
   facet normal 4.289402e-001 -3.203572e-001 -8.446192e-001
      outer loop
         vertex 4.835806e+001 -7.276056e+001 2.963508e-001
         vertex 4.954124e+001 -7.342695e+001 1.149988e+000
         vertex 4.906483e+001 -7.406483e+001 1.149988e+000
      endloop
   endfacet
   facet normal 4.245160e-001 -3.234465e-001 -8.456764e-001
      outer loop
         vertex 4.809968e+001 -7.309968e+001 2.963508e-001
         vertex 4.835806e+001 -7.276056e+001 2.963508e-001
         vertex 4.906483e+001 -7.406483e+001 1.149988e+000
      endloop
   endfacet
   facet normal 9.465254e-001 -1.703655e-001 -2.739805e-001
      outer loop
         vertex 5.038697e+001 -7.391163e+001 2.449022e+000
         vertex 5.042993e+001 -7.285748e+001 1.941942e+000
         vertex 5.100000e+001 -7.300000e+001 4.000000e+000
      endloop
   endfacet
   facet normal 2.686189e-001 1.066263e-001 -9.573269e-001
      outer loop
         vertex 4.835806e+001 -7.276056e+001 2.963508e-001
         vertex 4.700000e+001 -7.200000e+001 0.000000e+000
         vertex 4.890057e+001 -7.247514e+001 4.803659e-001
      endloop
   endfacet
   facet normal 0.000000e+000 0.000000e+000 -0.000000e+000
      outer loop
         vertex 4.835806e+001 -7.276056e+001 2.963508e-001
         vertex 4.700000e+001 -7.200000e+001 0.000000e+000
         vertex 4.700000e+001 -7.200000e+001 0.000000e+000
      endloop
   endfacet
   facet normal 0.000000e+000 0.000000e+000 -0.000000e+000
      outer loop
         vertex 4.776056e+001 -7.335806e+001 2.963508e-001
         vertex 4.700000e+001 -7.200000e+001 0.000000e+000
         vertex 4.700000e+001 -7.200000e+001 0.000000e+000
      endloop
   endfacet
   facet normal 5.282438e-002 -6.830360e-001 -7.284719e-001
      outer loop
         vertex 4.842695e+001 -7.454124e+001 1.149988e+000
         vertex 4.785748e+001 -7.542993e+001 1.941952e+000
         vertex 4.747520e+001 -7.390083e+001 4.805055e-001
      endloop
   endfacet
   facet normal 2.677856e-001 -9.394313e-001 -2.139153e-001
      outer loop
         vertex 4.891163e+001 -7.538697e+001 2.449022e+000
         vertex 4.958179e+001 -7.554911e+001 4.000000e+000
         vertex 4.800000e+001 -7.600000e+001 4.000000e+000
      endloop
   endfacet
   facet normal 9.444053e-001 -2.211496e-001 -2.432929e-001
      outer loop
         vertex 5.038697e+001 -7.391163e+001 2.449022e+000
         vertex 5.100000e+001 -7.300000e+001 4.000000e+000
         vertex 5.068810e+001 -7.433197e+001 4.000000e+000
      endloop
   endfacet
   facet normal 7.746207e-001 -5.561397e-001 -3.011170e-001
      outer loop
         vertex 5.068810e+001 -7.433197e+001 4.000000e+000
         vertex 4.977041e+001 -7.477041e+001 2.449022e+000
         vertex 5.038697e+001 -7.391163e+001 2.449022e+000
      endloop
   endfacet
   facet normal 7.361376e-001 -3.175255e-001 -5.977283e-001
      outer loop
         vertex 5.042993e+001 -7.285748e+001 1.941942e+000
         vertex 5.038697e+001 -7.391163e+001 2.449022e+000
         vertex 4.954124e+001 -7.342695e+001 1.149988e+000
      endloop
   endfacet
   facet normal 4.430958e-001 -2.968596e-001 -8.458963e-001
      outer loop
         vertex 4.890057e+001 -7.247514e+001 4.803659e-001
         vertex 4.954124e+001 -7.342695e+001 1.149988e+000
         vertex 4.835806e+001 -7.276056e+001 2.963508e-001
      endloop
   endfacet
   facet normal 1.502003e-001 -1.144403e-001 -9.820098e-001
      outer loop
         vertex 4.700000e+001 -7.200000e+001 0.000000e+000
         vertex 4.835806e+001 -7.276056e+001 2.963508e-001
         vertex 4.809968e+001 -7.309968e+001 2.963508e-001
      endloop
   endfacet
   facet normal 0.000000e+000 0.000000e+000 0.000000e+000
      outer loop
         vertex 4.700000e+001 -7.200000e+001 0.000000e+000
         vertex 4.835806e+001 -7.276056e+001 2.963508e-001
         vertex 4.700000e+001 -7.200000e+001 0.000000e+000
      endloop
   endfacet
   facet normal 3.175224e-001 -7.361390e-001 -5.977281e-001
      outer loop
         vertex 4.891163e+001 -7.538697e+001 2.449022e+000
         vertex 4.785748e+001 -7.542993e+001 1.941952e+000
         vertex 4.842695e+001 -7.454124e+001 1.149988e+000
      endloop
   endfacet
   facet normal 7.182873e-001 -6.528804e-001 -2.404383e-001
      outer loop
         vertex 4.958179e+001 -7.554911e+001 4.000000e+000
         vertex 4.977041e+001 -7.477041e+001 2.449022e+000
         vertex 5.068810e+001 -7.433197e+001 4.000000e+000
      endloop
   endfacet
   facet normal -0.000000e+000 0.000000e+000 0.000000e+000
      outer loop
         vertex 4.700000e+001 -7.200000e+001 0.000000e+000
         vertex 4.700000e+001 -7.200000e+001 0.000000e+000
         vertex 4.809968e+001 -7.309968e+001 2.963508e-001
      endloop
   endfacet
   facet normal 1.144405e-001 -1.502000e-001 -9.820098e-001
      outer loop
         vertex 4.776056e+001 -7.335806e+001 2.963508e-001
         vertex 4.700000e+001 -7.200000e+001 0.000000e+000
         vertex 4.809968e+001 -7.309968e+001 2.963508e-001
      endloop
   endfacet
   facet normal 6.830163e-001 -5.277077e-002 -7.284943e-001
      outer loop
         vertex 4.954124e+001 -7.342695e+001 1.149988e+000
         vertex 4.890057e+001 -7.247514e+001 4.803659e-001
         vertex 5.042993e+001 -7.285748e+001 1.941942e+000
      endloop
   endfacet
   facet normal 1.703661e-001 -9.465254e-001 -2.739802e-001
      outer loop
         vertex 4.891163e+001 -7.538697e+001 2.449022e+000
         vertex 4.800000e+001 -7.600000e+001 4.000000e+000
         vertex 4.785748e+001 -7.542993e+001 1.941952e+000
      endloop
   endfacet
   facet normal 2.968840e-001 -4.430817e-001 -8.458951e-001
      outer loop
         vertex 4.747520e+001 -7.390083e+001 4.805055e-001
         vertex 4.776056e+001 -7.335806e+001 2.963508e-001
         vertex 4.842695e+001 -7.454124e+001 1.149988e+000
      endloop
   endfacet
   facet normal 5.526826e-001 -7.698054e-001 -3.192830e-001
      outer loop
         vertex 4.977041e+001 -7.477041e+001 2.449022e+000
         vertex 4.958179e+001 -7.554911e+001 4.000000e+000
         vertex 4.891163e+001 -7.538697e+001 2.449022e+000
      endloop
   endfacet
   facet normal -1.067460e-001 -2.686783e-001 -9.572969e-001
      outer loop
         vertex 4.776056e+001 -7.335806e+001 2.963508e-001
         vertex 4.747520e+001 -7.390083e+001 4.805055e-001
         vertex 4.700000e+001 -7.200000e+001 0.000000e+000
      endloop
   endfacet
   facet normal -9.637121e-001 0.000000e+000 -2.669437e-001
      outer loop
         vertex -5.042993e+001 7.285748e+001 1.941942e+000
         vertex -5.042993e+001 -7.285748e+001 1.941942e+000
         vertex -5.100000e+001 -7.300000e+001 4.000000e+000
      endloop
   endfacet
   facet normal -2.450422e-001 0.000000e+000 -9.695124e-001
      outer loop
         vertex -4.700000e+001 7.200000e+001 0.000000e+000
         vertex -4.700000e+001 -7.200000e+001 0.000000e+000
         vertex -4.890057e+001 -7.247514e+001 4.803659e-001
      endloop
   endfacet
   facet normal -6.909056e-001 -0.000000e+000 -7.229450e-001
      outer loop
         vertex -5.042993e+001 -7.285748e+001 1.941942e+000
         vertex -5.042993e+001 7.285748e+001 1.941942e+000
         vertex -4.890057e+001 7.247514e+001 4.803659e-001
      endloop
   endfacet
   facet normal -9.637121e-001 0.000000e+000 -2.669437e-001
      outer loop
         vertex -5.042993e+001 7.285748e+001 1.941942e+000
         vertex -5.100000e+001 -7.300000e+001 4.000000e+000
         vertex -5.100000e+001 7.300000e+001 4.000000e+000
      endloop
   endfacet
   facet normal -6.909056e-001 0.000000e+000 -7.229450e-001
      outer loop
         vertex -4.890057e+001 7.247514e+001 4.803659e-001
         vertex -4.890057e+001 -7.247514e+001 4.803659e-001
         vertex -5.042993e+001 -7.285748e+001 1.941942e+000
      endloop
   endfacet
   facet normal -2.450422e-001 0.000000e+000 -9.695124e-001
      outer loop
         vertex -4.890057e+001 7.247514e+001 4.803659e-001
         vertex -4.700000e+001 7.200000e+001 0.000000e+000
         vertex -4.890057e+001 -7.247514e+001 4.803659e-001
      endloop
   endfacet
   facet normal 6.473680e-001 4.647785e-001 -6.040659e-001
      outer loop
         vertex 4.906483e+001 7.406483e+001 1.149988e+000
         vertex 4.977041e+001 7.477041e+001 2.449022e+000
         vertex 5.038697e+001 7.391163e+001 2.449022e+000
      endloop
   endfacet
   facet normal 6.425403e-001 4.798859e-001 -5.973705e-001
      outer loop
         vertex 4.954124e+001 7.342695e+001 1.149988e+000
         vertex 4.906483e+001 7.406483e+001 1.149988e+000
         vertex 5.038697e+001 7.391163e+001 2.449022e+000
      endloop
   endfacet
   facet normal 4.673601e-001 6.509638e-001 -5.981811e-001
      outer loop
         vertex 4.842695e+001 7.454124e+001 1.149988e+000
         vertex 4.891163e+001 7.538697e+001 2.449022e+000
         vertex 4.977041e+001 7.477041e+001 2.449022e+000
      endloop
   endfacet
   facet normal 4.763689e-001 6.378311e-001 -6.051812e-001
      outer loop
         vertex 4.906483e+001 7.406483e+001 1.149988e+000
         vertex 4.842695e+001 7.454124e+001 1.149988e+000
         vertex 4.977041e+001 7.477041e+001 2.449022e+000
      endloop
   endfacet
   facet normal 4.280120e-001 3.196639e-001 -8.453524e-001
      outer loop
         vertex 4.809968e+001 7.309968e+001 2.963508e-001
         vertex 4.906483e+001 7.406483e+001 1.149988e+000
         vertex 4.954124e+001 7.342695e+001 1.149988e+000
      endloop
   endfacet
   facet normal 4.262368e-001 3.247575e-001 -8.443073e-001
      outer loop
         vertex 4.835806e+001 7.276056e+001 2.963508e-001
         vertex 4.809968e+001 7.309968e+001 2.963508e-001
         vertex 4.954124e+001 7.342695e+001 1.149988e+000
      endloop
   endfacet
   facet normal 3.203573e-001 4.289404e-001 -8.446191e-001
      outer loop
         vertex 4.776056e+001 7.335806e+001 2.963508e-001
         vertex 4.842695e+001 7.454124e+001 1.149988e+000
         vertex 4.906483e+001 7.406483e+001 1.149988e+000
      endloop
   endfacet
   facet normal 3.234471e-001 4.245154e-001 -8.456764e-001
      outer loop
         vertex 4.809968e+001 7.309968e+001 2.963508e-001
         vertex 4.776056e+001 7.335806e+001 2.963508e-001
         vertex 4.906483e+001 7.406483e+001 1.149988e+000
      endloop
   endfacet
   facet normal 1.703661e-001 9.465254e-001 -2.739802e-001
      outer loop
         vertex 4.891163e+001 7.538697e+001 2.449022e+000
         vertex 4.785748e+001 7.542993e+001 1.941952e+000
         vertex 4.800000e+001 7.600000e+001 4.000000e+000
      endloop
   endfacet
   facet normal -1.067460e-001 2.686783e-001 -9.572969e-001
      outer loop
         vertex 4.776056e+001 7.335806e+001 2.963508e-001
         vertex 4.700000e+001 7.200000e+001 0.000000e+000
         vertex 4.747520e+001 7.390083e+001 4.805055e-001
      endloop
   endfacet
   facet normal 0.000000e+000 0.000000e+000 0.000000e+000
      outer loop
         vertex 4.776056e+001 7.335806e+001 2.963508e-001
         vertex 4.700000e+001 7.200000e+001 0.000000e+000
         vertex 4.700000e+001 7.200000e+001 0.000000e+000
      endloop
   endfacet
   facet normal 0.000000e+000 0.000000e+000 0.000000e+000
      outer loop
         vertex 4.835806e+001 7.276056e+001 2.963508e-001
         vertex 4.700000e+001 7.200000e+001 0.000000e+000
         vertex 4.700000e+001 7.200000e+001 0.000000e+000
      endloop
   endfacet
   facet normal 6.830163e-001 5.277077e-002 -7.284943e-001
      outer loop
         vertex 4.954124e+001 7.342695e+001 1.149988e+000
         vertex 5.042993e+001 7.285748e+001 1.941942e+000
         vertex 4.890057e+001 7.247514e+001 4.803659e-001
      endloop
   endfacet
   facet normal 9.394310e-001 2.677878e-001 -2.139139e-001
      outer loop
         vertex 5.038697e+001 7.391163e+001 2.449022e+000
         vertex 5.054911e+001 7.458179e+001 4.000000e+000
         vertex 5.100000e+001 7.300000e+001 4.000000e+000
      endloop
   endfacet
   facet normal 2.211496e-001 9.444053e-001 -2.432929e-001
      outer loop
         vertex 4.891163e+001 7.538697e+001 2.449022e+000
         vertex 4.800000e+001 7.600000e+001 4.000000e+000
         vertex 4.933197e+001 7.568810e+001 4.000000e+000
      endloop
   endfacet
   facet normal 5.561397e-001 7.746207e-001 -3.011170e-001
      outer loop
         vertex 4.933197e+001 7.568810e+001 4.000000e+000
         vertex 4.977041e+001 7.477041e+001 2.449022e+000
         vertex 4.891163e+001 7.538697e+001 2.449022e+000
      endloop
   endfacet
   facet normal 3.175224e-001 7.361390e-001 -5.977281e-001
      outer loop
         vertex 4.785748e+001 7.542993e+001 1.941952e+000
         vertex 4.891163e+001 7.538697e+001 2.449022e+000
         vertex 4.842695e+001 7.454124e+001 1.149988e+000
      endloop
   endfacet
   facet normal 2.968840e-001 4.430817e-001 -8.458951e-001
      outer loop
         vertex 4.747520e+001 7.390083e+001 4.805055e-001
         vertex 4.842695e+001 7.454124e+001 1.149988e+000
         vertex 4.776056e+001 7.335806e+001 2.963508e-001
      endloop
   endfacet
   facet normal 1.144405e-001 1.502000e-001 -9.820098e-001
      outer loop
         vertex 4.700000e+001 7.200000e+001 0.000000e+000
         vertex 4.776056e+001 7.335806e+001 2.963508e-001
         vertex 4.809968e+001 7.309968e+001 2.963508e-001
      endloop
   endfacet
   facet normal 0.000000e+000 0.000000e+000 0.000000e+000
      outer loop
         vertex 4.700000e+001 7.200000e+001 0.000000e+000
         vertex 4.776056e+001 7.335806e+001 2.963508e-001
         vertex 4.700000e+001 7.200000e+001 0.000000e+000
      endloop
   endfacet
   facet normal 7.361376e-001 3.175255e-001 -5.977283e-001
      outer loop
         vertex 5.038697e+001 7.391163e+001 2.449022e+000
         vertex 5.042993e+001 7.285748e+001 1.941942e+000
         vertex 4.954124e+001 7.342695e+001 1.149988e+000
      endloop
   endfacet
   facet normal 6.528816e-001 7.182864e-001 -2.404375e-001
      outer loop
         vertex 5.054911e+001 7.458179e+001 4.000000e+000
         vertex 4.977041e+001 7.477041e+001 2.449022e+000
         vertex 4.933197e+001 7.568810e+001 4.000000e+000
      endloop
   endfacet
   facet normal 0.000000e+000 0.000000e+000 0.000000e+000
      outer loop
         vertex 4.700000e+001 7.200000e+001 0.000000e+000
         vertex 4.700000e+001 7.200000e+001 0.000000e+000
         vertex 4.809968e+001 7.309968e+001 2.963508e-001
      endloop
   endfacet
   facet normal 1.502003e-001 1.144403e-001 -9.820098e-001
      outer loop
         vertex 4.835806e+001 7.276056e+001 2.963508e-001
         vertex 4.700000e+001 7.200000e+001 0.000000e+000
         vertex 4.809968e+001 7.309968e+001 2.963508e-001
      endloop
   endfacet
   facet normal 5.282438e-002 6.830360e-001 -7.284719e-001
      outer loop
         vertex 4.842695e+001 7.454124e+001 1.149988e+000
         vertex 4.747520e+001 7.390083e+001 4.805055e-001
         vertex 4.785748e+001 7.542993e+001 1.941952e+000
      endloop
   endfacet
   facet normal 9.465254e-001 1.703655e-001 -2.739805e-001
      outer loop
         vertex 5.038697e+001 7.391163e+001 2.449022e+000
         vertex 5.100000e+001 7.300000e+001 4.000000e+000
         vertex 5.042993e+001 7.285748e+001 1.941942e+000
      endloop
   endfacet
   facet normal 4.430958e-001 2.968596e-001 -8.458963e-001
      outer loop
         vertex 4.890057e+001 7.247514e+001 4.803659e-001
         vertex 4.835806e+001 7.276056e+001 2.963508e-001
         vertex 4.954124e+001 7.342695e+001 1.149988e+000
      endloop
   endfacet
   facet normal 7.698059e-001 5.526829e-001 -3.192813e-001
      outer loop
         vertex 4.977041e+001 7.477041e+001 2.449022e+000
         vertex 5.054911e+001 7.458179e+001 4.000000e+000
         vertex 5.038697e+001 7.391163e+001 2.449022e+000
      endloop
   endfacet
   facet normal 2.686189e-001 -1.066263e-001 -9.573269e-001
      outer loop
         vertex 4.835806e+001 7.276056e+001 2.963508e-001
         vertex 4.890057e+001 7.247514e+001 4.803659e-001
         vertex 4.700000e+001 7.200000e+001 0.000000e+000
      endloop
   endfacet
   facet normal -6.473680e-001 -4.647785e-001 -6.040659e-001
      outer loop
         vertex -4.906483e+001 -7.406483e+001 1.149988e+000
         vertex -4.977041e+001 -7.477041e+001 2.449022e+000
         vertex -5.038697e+001 -7.391163e+001 2.449022e+000
      endloop
   endfacet
   facet normal -6.425403e-001 -4.798859e-001 -5.973705e-001
      outer loop
         vertex -4.954124e+001 -7.342695e+001 1.149988e+000
         vertex -4.906483e+001 -7.406483e+001 1.149988e+000
         vertex -5.038697e+001 -7.391163e+001 2.449022e+000
      endloop
   endfacet
   facet normal -4.673601e-001 -6.509638e-001 -5.981811e-001
      outer loop
         vertex -4.842695e+001 -7.454124e+001 1.149988e+000
         vertex -4.891163e+001 -7.538697e+001 2.449022e+000
         vertex -4.977041e+001 -7.477041e+001 2.449022e+000
      endloop
   endfacet
   facet normal -4.763689e-001 -6.378311e-001 -6.051812e-001
      outer loop
         vertex -4.906483e+001 -7.406483e+001 1.149988e+000
         vertex -4.842695e+001 -7.454124e+001 1.149988e+000
         vertex -4.977041e+001 -7.477041e+001 2.449022e+000
      endloop
   endfacet
   facet normal -4.280120e-001 -3.196639e-001 -8.453524e-001
      outer loop
         vertex -4.809968e+001 -7.309968e+001 2.963508e-001
         vertex -4.906483e+001 -7.406483e+001 1.149988e+000
         vertex -4.954124e+001 -7.342695e+001 1.149988e+000
      endloop
   endfacet
   facet normal -4.262368e-001 -3.247575e-001 -8.443073e-001
      outer loop
         vertex -4.835806e+001 -7.276056e+001 2.963508e-001
         vertex -4.809968e+001 -7.309968e+001 2.963508e-001
         vertex -4.954124e+001 -7.342695e+001 1.149988e+000
      endloop
   endfacet
   facet normal -3.203573e-001 -4.289404e-001 -8.446191e-001
      outer loop
         vertex -4.776056e+001 -7.335806e+001 2.963508e-001
         vertex -4.842695e+001 -7.454124e+001 1.149988e+000
         vertex -4.906483e+001 -7.406483e+001 1.149988e+000
      endloop
   endfacet
   facet normal -3.234471e-001 -4.245154e-001 -8.456764e-001
      outer loop
         vertex -4.809968e+001 -7.309968e+001 2.963508e-001
         vertex -4.776056e+001 -7.335806e+001 2.963508e-001
         vertex -4.906483e+001 -7.406483e+001 1.149988e+000
      endloop
   endfacet
   facet normal -1.703661e-001 -9.465254e-001 -2.739802e-001
      outer loop
         vertex -4.891163e+001 -7.538697e+001 2.449022e+000
         vertex -4.785748e+001 -7.542993e+001 1.941952e+000
         vertex -4.800000e+001 -7.600000e+001 4.000000e+000
      endloop
   endfacet
   facet normal 1.067460e-001 -2.686783e-001 -9.572969e-001
      outer loop
         vertex -4.776056e+001 -7.335806e+001 2.963508e-001
         vertex -4.700000e+001 -7.200000e+001 0.000000e+000
         vertex -4.747520e+001 -7.390083e+001 4.805055e-001
      endloop
   endfacet
   facet normal 0.000000e+000 -0.000000e+000 0.000000e+000
      outer loop
         vertex -4.776056e+001 -7.335806e+001 2.963508e-001
         vertex -4.700000e+001 -7.200000e+001 0.000000e+000
         vertex -4.700000e+001 -7.200000e+001 0.000000e+000
      endloop
   endfacet
   facet normal 0.000000e+000 -0.000000e+000 0.000000e+000
      outer loop
         vertex -4.835806e+001 -7.276056e+001 2.963508e-001
         vertex -4.700000e+001 -7.200000e+001 0.000000e+000
         vertex -4.700000e+001 -7.200000e+001 0.000000e+000
      endloop
   endfacet
   facet normal -6.830163e-001 -5.277077e-002 -7.284943e-001
      outer loop
         vertex -4.954124e+001 -7.342695e+001 1.149988e+000
         vertex -5.042993e+001 -7.285748e+001 1.941942e+000
         vertex -4.890057e+001 -7.247514e+001 4.803659e-001
      endloop
   endfacet
   facet normal -9.394310e-001 -2.677878e-001 -2.139139e-001
      outer loop
         vertex -5.038697e+001 -7.391163e+001 2.449022e+000
         vertex -5.054911e+001 -7.458179e+001 4.000000e+000
         vertex -5.100000e+001 -7.300000e+001 4.000000e+000
      endloop
   endfacet
   facet normal -2.211496e-001 -9.444053e-001 -2.432929e-001
      outer loop
         vertex -4.891163e+001 -7.538697e+001 2.449022e+000
         vertex -4.800000e+001 -7.600000e+001 4.000000e+000
         vertex -4.933197e+001 -7.568810e+001 4.000000e+000
      endloop
   endfacet
   facet normal -5.561397e-001 -7.746207e-001 -3.011170e-001
      outer loop
         vertex -4.933197e+001 -7.568810e+001 4.000000e+000
         vertex -4.977041e+001 -7.477041e+001 2.449022e+000
         vertex -4.891163e+001 -7.538697e+001 2.449022e+000
      endloop
   endfacet
   facet normal -3.175224e-001 -7.361390e-001 -5.977281e-001
      outer loop
         vertex -4.785748e+001 -7.542993e+001 1.941952e+000
         vertex -4.891163e+001 -7.538697e+001 2.449022e+000
         vertex -4.842695e+001 -7.454124e+001 1.149988e+000
      endloop
   endfacet
   facet normal -2.968840e-001 -4.430817e-001 -8.458951e-001
      outer loop
         vertex -4.747520e+001 -7.390083e+001 4.805055e-001
         vertex -4.842695e+001 -7.454124e+001 1.149988e+000
         vertex -4.776056e+001 -7.335806e+001 2.963508e-001
      endloop
   endfacet
   facet normal -1.144405e-001 -1.502000e-001 -9.820098e-001
      outer loop
         vertex -4.700000e+001 -7.200000e+001 0.000000e+000
         vertex -4.776056e+001 -7.335806e+001 2.963508e-001
         vertex -4.809968e+001 -7.309968e+001 2.963508e-001
      endloop
   endfacet
   facet normal 0.000000e+000 0.000000e+000 0.000000e+000
      outer loop
         vertex -4.700000e+001 -7.200000e+001 0.000000e+000
         vertex -4.776056e+001 -7.335806e+001 2.963508e-001
         vertex -4.700000e+001 -7.200000e+001 0.000000e+000
      endloop
   endfacet
   facet normal -7.361376e-001 -3.175255e-001 -5.977283e-001
      outer loop
         vertex -5.038697e+001 -7.391163e+001 2.449022e+000
         vertex -5.042993e+001 -7.285748e+001 1.941942e+000
         vertex -4.954124e+001 -7.342695e+001 1.149988e+000
      endloop
   endfacet
   facet normal -6.528816e-001 -7.182864e-001 -2.404375e-001
      outer loop
         vertex -5.054911e+001 -7.458179e+001 4.000000e+000
         vertex -4.977041e+001 -7.477041e+001 2.449022e+000
         vertex -4.933197e+001 -7.568810e+001 4.000000e+000
      endloop
   endfacet
   facet normal -0.000000e+000 0.000000e+000 0.000000e+000
      outer loop
         vertex -4.700000e+001 -7.200000e+001 0.000000e+000
         vertex -4.700000e+001 -7.200000e+001 0.000000e+000
         vertex -4.809968e+001 -7.309968e+001 2.963508e-001
      endloop
   endfacet
   facet normal -1.502003e-001 -1.144403e-001 -9.820098e-001
      outer loop
         vertex -4.835806e+001 -7.276056e+001 2.963508e-001
         vertex -4.700000e+001 -7.200000e+001 0.000000e+000
         vertex -4.809968e+001 -7.309968e+001 2.963508e-001
      endloop
   endfacet
   facet normal -5.282438e-002 -6.830360e-001 -7.284719e-001
      outer loop
         vertex -4.842695e+001 -7.454124e+001 1.149988e+000
         vertex -4.747520e+001 -7.390083e+001 4.805055e-001
         vertex -4.785748e+001 -7.542993e+001 1.941952e+000
      endloop
   endfacet
   facet normal -9.465254e-001 -1.703655e-001 -2.739805e-001
      outer loop
         vertex -5.038697e+001 -7.391163e+001 2.449022e+000
         vertex -5.100000e+001 -7.300000e+001 4.000000e+000
         vertex -5.042993e+001 -7.285748e+001 1.941942e+000
      endloop
   endfacet
   facet normal -4.430958e-001 -2.968596e-001 -8.458963e-001
      outer loop
         vertex -4.890057e+001 -7.247514e+001 4.803659e-001
         vertex -4.835806e+001 -7.276056e+001 2.963508e-001
         vertex -4.954124e+001 -7.342695e+001 1.149988e+000
      endloop
   endfacet
   facet normal -7.698059e-001 -5.526829e-001 -3.192813e-001
      outer loop
         vertex -4.977041e+001 -7.477041e+001 2.449022e+000
         vertex -5.054911e+001 -7.458179e+001 4.000000e+000
         vertex -5.038697e+001 -7.391163e+001 2.449022e+000
      endloop
   endfacet
   facet normal -2.686189e-001 1.066263e-001 -9.573269e-001
      outer loop
         vertex -4.835806e+001 -7.276056e+001 2.963508e-001
         vertex -4.890057e+001 -7.247514e+001 4.803659e-001
         vertex -4.700000e+001 -7.200000e+001 0.000000e+000
      endloop
   endfacet
   facet normal 9.637121e-001 0.000000e+000 -2.669437e-001
      outer loop
         vertex 5.042993e+001 -7.285748e+001 1.941942e+000
         vertex 5.042993e+001 7.285748e+001 1.941942e+000
         vertex 5.100000e+001 7.300000e+001 4.000000e+000
      endloop
   endfacet
   facet normal 2.450422e-001 0.000000e+000 -9.695124e-001
      outer loop
         vertex 4.700000e+001 -7.200000e+001 0.000000e+000
         vertex 4.700000e+001 7.200000e+001 0.000000e+000
         vertex 4.890057e+001 7.247514e+001 4.803659e-001
      endloop
   endfacet
   facet normal 6.909056e-001 0.000000e+000 -7.229450e-001
      outer loop
         vertex 5.042993e+001 7.285748e+001 1.941942e+000
         vertex 5.042993e+001 -7.285748e+001 1.941942e+000
         vertex 4.890057e+001 -7.247514e+001 4.803659e-001
      endloop
   endfacet
   facet normal 9.637121e-001 0.000000e+000 -2.669437e-001
      outer loop
         vertex 5.042993e+001 -7.285748e+001 1.941942e+000
         vertex 5.100000e+001 7.300000e+001 4.000000e+000
         vertex 5.100000e+001 -7.300000e+001 4.000000e+000
      endloop
   endfacet
   facet normal 6.909056e-001 0.000000e+000 -7.229450e-001
      outer loop
         vertex 4.890057e+001 -7.247514e+001 4.803659e-001
         vertex 4.890057e+001 7.247514e+001 4.803659e-001
         vertex 5.042993e+001 7.285748e+001 1.941942e+000
      endloop
   endfacet
   facet normal 2.450422e-001 0.000000e+000 -9.695124e-001
      outer loop
         vertex 4.890057e+001 -7.247514e+001 4.803659e-001
         vertex 4.700000e+001 -7.200000e+001 0.000000e+000
         vertex 4.890057e+001 7.247514e+001 4.803659e-001
      endloop
   endfacet
   facet normal -0.000000e+000 -9.637123e-001 -2.669432e-001
      outer loop
         vertex -4.785748e+001 -7.542993e+001 1.941952e+000
         vertex 4.785748e+001 -7.542993e+001 1.941952e+000
         vertex 4.800000e+001 -7.600000e+001 4.000000e+000
      endloop
   endfacet
   facet normal -0.000000e+000 -2.450777e-001 -9.695035e-001
      outer loop
         vertex -4.700000e+001 -7.200000e+001 0.000000e+000
         vertex 4.700000e+001 -7.200000e+001 0.000000e+000
         vertex 4.747520e+001 -7.390083e+001 4.805055e-001
      endloop
   endfacet
   facet normal 0.000000e+000 -6.909340e-001 -7.229179e-001
      outer loop
         vertex 4.785748e+001 -7.542993e+001 1.941952e+000
         vertex -4.785748e+001 -7.542993e+001 1.941952e+000
         vertex -4.747520e+001 -7.390083e+001 4.805055e-001
      endloop
   endfacet
   facet normal -0.000000e+000 -9.637123e-001 -2.669432e-001
      outer loop
         vertex -4.785748e+001 -7.542993e+001 1.941952e+000
         vertex 4.800000e+001 -7.600000e+001 4.000000e+000
         vertex -4.800000e+001 -7.600000e+001 4.000000e+000
      endloop
   endfacet
   facet normal -0.000000e+000 -6.909340e-001 -7.229179e-001
      outer loop
         vertex -4.747520e+001 -7.390083e+001 4.805055e-001
         vertex 4.747520e+001 -7.390083e+001 4.805055e-001
         vertex 4.785748e+001 -7.542993e+001 1.941952e+000
      endloop
   endfacet
   facet normal 0.000000e+000 -2.450777e-001 -9.695035e-001
      outer loop
         vertex -4.747520e+001 -7.390083e+001 4.805055e-001
         vertex -4.700000e+001 -7.200000e+001 0.000000e+000
         vertex 4.747520e+001 -7.390083e+001 4.805055e-001
      endloop
   endfacet
endsolid
